<svg width="97" height="135" viewBox="0 0 97 135" fill="none" xmlns="http://www.w3.org/2000/svg">
<path d="M49.0002 107.5L42.5 114L35.9998 107.5" stroke="#C6C6C6"/>
<line x1="42.5" y1="83" x2="42.5" y2="135" stroke="#C6C6C6" stroke-dasharray="4 4"/>
<path d="M41.1839 49.7079C38.2293 46.7534 38.2294 41.9634 41.1839 39.0089L60.7463 19.4472C63.7008 16.4927 68.4911 16.4927 71.4456 19.4472L91.008 39.0089C93.9625 41.9634 93.9625 46.7534 91.008 49.7079L71.4456 69.2696C68.4911 72.2241 63.7008 72.2241 60.7463 69.2696L41.1839 49.7079Z" fill="white"/>
<path fill-rule="evenodd" clip-rule="evenodd" d="M62.8862 21.5869L43.3237 41.1487C41.551 42.9214 41.551 45.7954 43.3237 47.5681L62.8862 67.1298C64.6589 68.9025 67.533 68.9025 69.3057 67.1298L88.8681 47.5681C90.6409 45.7954 90.6409 42.9214 88.8681 41.1487L69.3057 21.5869C67.533 19.8143 64.6589 19.8143 62.8862 21.5869ZM41.1839 39.0089C38.2294 41.9634 38.2293 46.7534 41.1839 49.7079L60.7463 69.2696C63.7008 72.2241 68.4911 72.2241 71.4456 69.2696L91.008 49.7079C93.9625 46.7534 93.9625 41.9634 91.008 39.0089L71.4456 19.4472C68.4911 16.4927 63.7008 16.4927 60.7463 19.4472L41.1839 39.0089Z" fill="#E50086"/>
<path d="M5.82915 50.0863C2.87462 47.1319 2.87461 42.3418 5.82915 39.3873L36.9713 8.24618C39.9259 5.29174 44.7161 5.29173 47.6707 8.24617L78.8128 39.3873C81.7674 42.3418 81.7674 47.1319 78.8129 50.0863L47.6707 81.2275C44.7161 84.1819 39.9259 84.1819 36.9713 81.2275L5.82915 50.0863Z" fill="white"/>
<path fill-rule="evenodd" clip-rule="evenodd" d="M46.5248 82.1697L46.1038 81.5411C46.4675 81.2975 46.8135 81.0147 47.1357 80.6925L48.2479 79.5803L48.7829 80.1153L47.6707 81.2275C47.3134 81.5847 46.9293 81.8988 46.5248 82.1697ZM77.7006 51.1985L77.1657 50.6635L78.2779 49.5513C78.6001 49.2291 78.8829 48.8832 79.1265 48.5195L79.7551 48.9405C79.4842 49.3449 79.1701 49.729 78.8129 50.0863L77.7006 51.1985ZM80.8841 46.213L80.142 46.0661C80.3156 45.1892 80.3156 44.2845 80.142 43.4075L80.8841 43.2606C81.077 44.2345 81.077 45.2391 80.8841 46.213ZM48.7829 9.35835L48.2479 9.8933L47.1357 8.78112C46.8135 8.45889 46.4675 8.17615 46.1038 7.93257L46.5248 7.30397C46.9293 7.57484 47.3134 7.8889 47.6707 8.24617L48.7829 9.35835ZM43.7972 6.17495L43.6503 6.91708C42.7734 6.74348 41.8686 6.74348 40.9917 6.91709L40.8448 6.17496C41.8187 5.98214 42.8233 5.98214 43.7972 6.17495ZM6.94137 38.2752L5.82915 39.3873C5.47187 39.7446 5.15779 40.1287 4.88692 40.5332L5.51554 40.9541C5.75913 40.5904 6.04188 40.2445 6.36411 39.9223L7.47633 38.8101L6.94137 38.2752ZM3.75786 43.2606L4.50001 43.4076C4.3264 44.2845 4.3264 45.1892 4.50002 46.0661L3.75787 46.213C3.56505 45.2391 3.56505 44.2346 3.75786 43.2606ZM35.8591 80.1153L36.3941 79.5803L37.5063 80.6925C37.8285 81.0147 38.1745 81.2975 38.5382 81.5411L38.1172 82.1697C37.7127 81.8988 37.3286 81.5847 36.9713 81.2275L35.8591 80.1153ZM40.8448 83.2987L40.9917 82.5566C41.8686 82.7302 42.7734 82.7302 43.6503 82.5566L43.7972 83.2987C42.8233 83.4915 41.8187 83.4915 40.8448 83.2987ZM33.6347 77.8909L34.1696 77.356L31.9452 75.1316L31.4102 75.6665L33.6347 77.8909ZM29.1858 73.4422L29.7208 72.9072L27.4963 70.6829L26.9614 71.2178L29.1858 73.4422ZM24.7369 68.9934L25.2719 68.4585L23.0474 66.2341L22.5125 66.7691L24.7369 68.9934ZM20.288 64.5447L20.823 64.0098L18.5986 61.7854L18.0636 62.3203L20.288 64.5447ZM15.8391 60.096L16.3741 59.561L14.1497 57.3366L13.6147 57.8716L15.8391 60.096ZM11.3903 55.6472L11.9252 55.1123L9.70078 52.8879L9.16582 53.4229L11.3903 55.6472ZM6.94137 51.1985L7.47634 50.6635L6.36412 49.5514C6.04188 49.2291 5.75913 48.8832 5.51554 48.5195L4.88693 48.9405C5.1578 49.3449 5.47187 49.729 5.82915 50.0863L6.94137 51.1985ZM9.16581 36.0508L9.70078 36.5857L11.9252 34.3614L11.3903 33.8264L9.16581 36.0508ZM13.6147 31.602L14.1497 32.137L16.3741 29.9126L15.8391 29.3777L13.6147 31.602ZM18.0636 27.1533L18.5985 27.6883L20.823 25.4639L20.288 24.9289L18.0636 27.1533ZM22.5125 22.7046L23.0474 23.2395L25.2719 21.0152L24.7369 20.4802L22.5125 22.7046ZM26.9613 18.2558L27.4963 18.7908L29.7208 16.5664L29.1858 16.0315L26.9613 18.2558ZM31.4102 13.8071L31.9452 14.342L34.1696 12.1177L33.6347 11.5827L31.4102 13.8071ZM35.8591 9.35836L36.3941 9.89331L37.5063 8.78112C37.8285 8.4589 38.1744 8.17616 38.5382 7.93258L38.1172 7.30398C37.7127 7.57484 37.3286 7.88891 36.9713 8.24618L35.8591 9.35836ZM51.0073 11.5827L50.4724 12.1177L52.6968 14.342L53.2318 13.8071L51.0073 11.5827ZM55.4562 16.0315L54.9212 16.5664L57.1457 18.7908L57.6806 18.2558L55.4562 16.0315ZM59.9051 20.4802L59.3701 21.0151L61.5946 23.2395L62.1295 22.7046L59.9051 20.4802ZM64.354 24.9289L63.819 25.4639L66.0434 27.6882L66.5784 27.1533L64.354 24.9289ZM68.8029 29.3777L68.2679 29.9126L70.4923 32.137L71.0273 31.602L68.8029 29.3777ZM73.2517 33.8264L72.7168 34.3614L74.9412 36.5857L75.4762 36.0508L73.2517 33.8264ZM77.7006 38.2751L77.1657 38.8101L78.2779 39.9223C78.6001 40.2445 78.8829 40.5904 79.1265 40.9541L79.7551 40.5332C79.4842 40.1287 79.1701 39.7446 78.8128 39.3873L77.7006 38.2751ZM75.4762 53.4229L74.9412 52.8879L72.7168 55.1123L73.2517 55.6472L75.4762 53.4229ZM71.0273 57.8716L70.4923 57.3366L68.2679 59.561L68.8029 60.096L71.0273 57.8716ZM66.5784 62.3203L66.0435 61.7854L63.819 64.0097L64.354 64.5447L66.5784 62.3203ZM62.1295 66.7691L61.5946 66.2341L59.3701 68.4585L59.9051 68.9934L62.1295 66.7691ZM57.6807 71.2178L57.1457 70.6829L54.9212 72.9072L55.4562 73.4422L57.6807 71.2178ZM53.2318 75.6665L52.6968 75.1316L50.4724 77.356L51.0073 77.8909L53.2318 75.6665Z" fill="#E50086"/>
<path fill-rule="evenodd" clip-rule="evenodd" d="M30.7909 13.6695C30.2 13.0786 30.2 12.1206 30.7909 11.5297L35.9016 6.41916C39.447 2.87384 45.1953 2.87384 48.7408 6.41916L79.883 37.5603C83.4284 41.1057 83.4284 46.8538 79.883 50.3991L74.7723 55.5096C74.1813 56.1005 73.2233 56.1005 72.6324 55.5096C72.0415 54.9187 72.0415 53.9607 72.6324 53.3698L77.7431 48.2593C80.1067 45.8957 80.1067 42.0637 77.7431 39.7001L46.6009 8.55895C44.2373 6.19541 40.4051 6.19541 38.0415 8.55895L32.9307 13.6695C32.3398 14.2604 31.3818 14.2604 30.7909 13.6695Z" fill="#E50086"/>
<path d="M46.4586 57.077V26.9531H43.7877C42.0838 30.3103 39.8273 30.8547 35.3604 30.9908V33.6221H42.5443V57.077H46.4586Z" fill="#E50086"/>
</svg>
