<svg width="27" height="27" viewBox="0 0 27 27" fill="none" xmlns="http://www.w3.org/2000/svg">
<path fill-rule="evenodd" clip-rule="evenodd" d="M9.19577 6.00779C9.19577 6.01212 9.17501 6.01557 9.14905 6.01557C9.1231 6.01557 9.10234 6.01903 9.10234 6.02336C9.10234 6.02764 9.08832 6.03115 9.07119 6.03115C9.05406 6.03115 9.04004 6.03465 9.04004 6.03893C9.04004 6.04321 9.02603 6.04672 9.0089 6.04672C8.99177 6.04672 8.97775 6.05022 8.97775 6.05451C8.97775 6.05879 8.97075 6.06229 8.96218 6.06229C8.95362 6.06229 8.94661 6.0658 8.94661 6.07008C8.94661 6.07436 8.9396 6.07786 8.93103 6.07786C8.92247 6.07786 8.91546 6.08137 8.91546 6.08565C8.91546 6.08993 8.90922 6.09344 8.90161 6.09344C8.89399 6.09344 8.8827 6.10044 8.87653 6.10901C8.87035 6.11758 8.85984 6.12458 8.85317 6.12458C8.8465 6.12458 8.83599 6.13159 8.82981 6.14016C8.82364 6.14872 8.81235 6.15573 8.80473 6.15573C8.79712 6.15573 8.79088 6.15923 8.79088 6.16352C8.79088 6.1678 8.78464 6.1713 8.77703 6.1713C8.7694 6.1713 8.75812 6.17831 8.75195 6.18687C8.74577 6.19544 8.73526 6.20245 8.72859 6.20245C8.72191 6.20245 8.7114 6.20945 8.70523 6.21802C8.69905 6.22659 8.68854 6.23359 8.68187 6.23359C8.6752 6.23359 8.66468 6.2406 8.65851 6.24917C8.65233 6.25773 8.64182 6.26474 8.63515 6.26474C8.62848 6.26474 8.61797 6.27175 8.61179 6.28031C8.60562 6.28888 8.5951 6.29588 8.58843 6.29588C8.58176 6.29588 8.57125 6.30289 8.56507 6.31146C8.5589 6.32002 8.54902 6.32703 8.54311 6.32703C8.53722 6.32703 8.52257 6.33754 8.51057 6.35039C8.49857 6.36324 8.48455 6.37375 8.47942 6.37375C8.47429 6.37375 8.46027 6.38426 8.44828 6.39711C8.43628 6.40996 8.42233 6.42047 8.41729 6.42047C8.41225 6.42047 8.39466 6.43448 8.3782 6.45161C8.36174 6.46874 8.34426 6.48276 8.33937 6.48276C8.33448 6.48276 8.31341 6.50028 8.29255 6.52169C8.27169 6.5431 8.25087 6.56062 8.2463 6.56062C8.24172 6.56062 8.14863 6.64996 8.03945 6.75914C7.93027 6.86832 7.84093 6.96141 7.84093 6.96598C7.84093 6.97056 7.82341 6.99138 7.802 7.01224C7.78059 7.0331 7.76307 7.05417 7.76307 7.05906C7.76307 7.06395 7.74905 7.08143 7.73192 7.09789C7.71479 7.11435 7.70078 7.13194 7.70078 7.13697C7.70078 7.14202 7.69027 7.15597 7.67742 7.16796C7.66457 7.17996 7.65406 7.19462 7.65406 7.20051C7.65406 7.20641 7.64705 7.21629 7.63849 7.22247C7.62992 7.22864 7.62291 7.23916 7.62291 7.24583C7.62291 7.2525 7.61591 7.26301 7.60734 7.26919C7.59878 7.27536 7.59177 7.28587 7.59177 7.29255C7.59177 7.29922 7.58476 7.30973 7.5762 7.31591C7.56763 7.32208 7.56062 7.33259 7.56062 7.33927C7.56062 7.34594 7.55362 7.35645 7.54505 7.36263C7.53649 7.3688 7.52948 7.37931 7.52948 7.38598C7.52948 7.39266 7.52247 7.40317 7.5139 7.40934C7.50534 7.41552 7.49833 7.4268 7.49833 7.43442C7.49833 7.44204 7.49483 7.44828 7.49055 7.44828C7.48626 7.44828 7.48276 7.45451 7.48276 7.46213C7.48276 7.46975 7.47575 7.48103 7.46719 7.48721C7.45862 7.49338 7.45161 7.50467 7.45161 7.51229C7.45161 7.5199 7.44811 7.52614 7.44383 7.52614C7.43954 7.52614 7.43604 7.53315 7.43604 7.54171C7.43604 7.55028 7.43254 7.55729 7.42825 7.55729C7.42397 7.55729 7.42047 7.56429 7.42047 7.57286C7.42047 7.58142 7.41696 7.58843 7.41268 7.58843C7.4084 7.58843 7.40489 7.59544 7.40489 7.604C7.40489 7.61257 7.40139 7.61958 7.39711 7.61958C7.39283 7.61958 7.38932 7.62659 7.38932 7.63515C7.38932 7.64372 7.38582 7.65072 7.38154 7.65072C7.37725 7.65072 7.37375 7.65773 7.37375 7.6663C7.37375 7.67486 7.37024 7.68187 7.36596 7.68187C7.36168 7.68187 7.35818 7.68888 7.35818 7.69744C7.35818 7.70601 7.35467 7.71301 7.35039 7.71301C7.34611 7.71301 7.3426 7.72002 7.3426 7.72859C7.3426 7.73715 7.3391 7.74416 7.33482 7.74416C7.33053 7.74416 7.32703 7.75117 7.32703 7.75973C7.32703 7.7683 7.32353 7.77531 7.31924 7.77531C7.31496 7.77531 7.31146 7.78231 7.31146 7.79088C7.31146 7.79944 7.30795 7.80645 7.30367 7.80645C7.29939 7.80645 7.29588 7.81346 7.29588 7.82202C7.29588 7.83059 7.29238 7.8376 7.2881 7.8376C7.28382 7.8376 7.28031 7.84811 7.28031 7.86096C7.28031 7.8738 7.27681 7.88432 7.27253 7.88432C7.26824 7.88432 7.26474 7.89132 7.26474 7.89989C7.26474 7.90845 7.26123 7.91546 7.25695 7.91546C7.25267 7.91546 7.24917 7.92597 7.24917 7.93882C7.24917 7.95167 7.24566 7.96218 7.24138 7.96218C7.2371 7.96218 7.23359 7.97269 7.23359 7.98554C7.23359 7.99839 7.23009 8.0089 7.22581 8.0089C7.22152 8.0089 7.21802 8.01591 7.21802 8.02447C7.21802 8.03304 7.21452 8.04004 7.21023 8.04004C7.20595 8.04004 7.20245 8.05056 7.20245 8.0634C7.20245 8.07625 7.19894 8.08676 7.19466 8.08676C7.19038 8.08676 7.18687 8.09727 7.18687 8.11012C7.18687 8.12297 7.18337 8.13348 7.17909 8.13348C7.17481 8.13348 7.1713 8.14399 7.1713 8.15684C7.1713 8.16969 7.1678 8.1802 7.16352 8.1802C7.15923 8.1802 7.15573 8.19422 7.15573 8.21135C7.15573 8.22848 7.15222 8.24249 7.14794 8.24249C7.14366 8.24249 7.14016 8.253 7.14016 8.26585C7.14016 8.2787 7.13665 8.28921 7.13237 8.28921C7.12809 8.28921 7.12458 8.30323 7.12458 8.32036C7.12458 8.33749 7.12108 8.3515 7.1168 8.3515C7.11251 8.3515 7.10901 8.36552 7.10901 8.38265C7.10901 8.39978 7.10551 8.41379 7.10122 8.41379C7.09694 8.41379 7.09344 8.42781 7.09344 8.44494C7.09344 8.46207 7.08993 8.47608 7.08565 8.47608C7.08132 8.47608 7.07786 8.49685 7.07786 8.5228C7.07786 8.54876 7.07441 8.56952 7.07008 8.56952C7.0658 8.56952 7.06229 8.58704 7.06229 8.60845C7.06229 8.62987 7.05879 8.64739 7.05451 8.64739C7.05018 8.64739 7.04672 8.66815 7.04672 8.6941C7.04672 8.72006 7.04326 8.74082 7.03893 8.74082C7.03439 8.74082 7.03115 8.76678 7.03115 8.80311C7.03115 8.83945 7.0279 8.86541 7.02336 8.86541C7.01864 8.86541 7.01557 8.89914 7.01557 8.95106C7.01557 9.00297 7.01251 9.03671 7.00779 9.03671C7.00276 9.03671 7 9.12236 7 9.27809C7 9.43382 7.00276 9.51947 7.00779 9.51947C7.01251 9.51947 7.01557 9.5532 7.01557 9.60512C7.01557 9.65703 7.01864 9.69077 7.02336 9.69077C7.0279 9.69077 7.03115 9.71672 7.03115 9.75306C7.03115 9.7894 7.03439 9.81535 7.03893 9.81535C7.04326 9.81535 7.04672 9.83612 7.04672 9.86207C7.04672 9.88802 7.05018 9.90879 7.05451 9.90879C7.05879 9.90879 7.06229 9.92631 7.06229 9.94772C7.06229 9.96913 7.0658 9.98665 7.07008 9.98665C7.07436 9.98665 7.07786 10.0042 7.07786 10.0256C7.07786 10.047 7.08137 10.0645 7.08565 10.0645C7.08993 10.0645 7.09344 10.0785 7.09344 10.0957C7.09344 10.1128 7.09694 10.1268 7.10122 10.1268C7.10551 10.1268 7.10901 10.1373 7.10901 10.1502C7.10901 10.163 7.11251 10.1735 7.1168 10.1735C7.12108 10.1735 7.12458 10.184 7.12458 10.1969C7.12458 10.2097 7.12809 10.2202 7.13237 10.2202C7.13665 10.2202 7.14016 10.2308 7.14016 10.2436C7.14016 10.2565 7.14366 10.267 7.14794 10.267C7.15222 10.267 7.15573 10.2775 7.15573 10.2903C7.15573 10.3032 7.15923 10.3137 7.16352 10.3137C7.1678 10.3137 7.1713 10.3242 7.1713 10.337C7.1713 10.3499 7.17481 10.3604 7.17909 10.3604C7.18337 10.3604 7.18687 10.3709 7.18687 10.3838C7.18687 10.3966 7.19038 10.4071 7.19466 10.4071C7.19894 10.4071 7.20245 10.4176 7.20245 10.4305C7.20245 10.4433 7.20595 10.4538 7.21023 10.4538C7.21452 10.4538 7.21802 10.4643 7.21802 10.4772C7.21802 10.49 7.22152 10.5006 7.22581 10.5006C7.23009 10.5006 7.23359 10.5076 7.23359 10.5161C7.23359 10.5247 7.2371 10.5317 7.24138 10.5317C7.24566 10.5317 7.24917 10.5422 7.24917 10.5551C7.24917 10.5679 7.25267 10.5784 7.25695 10.5784C7.26123 10.5784 7.26474 10.5889 7.26474 10.6018C7.26474 10.6146 7.26824 10.6251 7.27253 10.6251C7.27681 10.6251 7.28031 10.6357 7.28031 10.6485C7.28031 10.6613 7.28382 10.6719 7.2881 10.6719C7.29238 10.6719 7.29588 10.6824 7.29588 10.6952C7.29588 10.7081 7.29939 10.7186 7.30367 10.7186C7.30795 10.7186 7.31146 10.7291 7.31146 10.7419C7.31146 10.7548 7.31496 10.7653 7.31924 10.7653C7.32353 10.7653 7.32703 10.7723 7.32703 10.7809C7.32703 10.7894 7.33053 10.7964 7.33482 10.7964C7.3391 10.7964 7.3426 10.807 7.3426 10.8198C7.3426 10.8326 7.34611 10.8432 7.35039 10.8432C7.35467 10.8432 7.35818 10.8502 7.35818 10.8587C7.35818 10.8673 7.36168 10.8743 7.36596 10.8743C7.37024 10.8743 7.37375 10.8848 7.37375 10.8977C7.37375 10.9105 7.37725 10.921 7.38154 10.921C7.38582 10.921 7.38932 10.9315 7.38932 10.9444C7.38932 10.9572 7.39283 10.9677 7.39711 10.9677C7.40139 10.9677 7.40489 10.9747 7.40489 10.9833C7.40489 10.9919 7.4084 10.9989 7.41268 10.9989C7.41696 10.9989 7.42047 11.0094 7.42047 11.0222C7.42047 11.0351 7.42397 11.0456 7.42825 11.0456C7.43254 11.0456 7.43604 11.0526 7.43604 11.0612C7.43604 11.0697 7.43954 11.0768 7.44383 11.0768C7.44811 11.0768 7.45161 11.0873 7.45161 11.1001C7.45161 11.113 7.45512 11.1235 7.4594 11.1235C7.46368 11.1235 7.46719 11.1305 7.46719 11.139C7.46719 11.1476 7.47069 11.1546 7.47497 11.1546C7.47925 11.1546 7.48276 11.1651 7.48276 11.178C7.48276 11.1908 7.48626 11.2013 7.49055 11.2013C7.49483 11.2013 7.49833 11.2083 7.49833 11.2169C7.49833 11.2255 7.50184 11.2325 7.50612 11.2325C7.5104 11.2325 7.5139 11.2395 7.5139 11.2481C7.5139 11.2566 7.51741 11.2636 7.52169 11.2636C7.52597 11.2636 7.52948 11.2706 7.52948 11.2792C7.52948 11.2878 7.53298 11.2948 7.53726 11.2948C7.54155 11.2948 7.54505 11.3053 7.54505 11.3181C7.54505 11.331 7.54855 11.3415 7.55284 11.3415C7.55712 11.3415 7.56062 11.3485 7.56062 11.3571C7.56062 11.3656 7.56413 11.3726 7.56841 11.3726C7.57269 11.3726 7.5762 11.3796 7.5762 11.3882C7.5762 11.3968 7.5797 11.4038 7.58398 11.4038C7.58826 11.4038 7.59177 11.4143 7.59177 11.4271C7.59177 11.44 7.59527 11.4505 7.59956 11.4505C7.60384 11.4505 7.60734 11.4575 7.60734 11.4661C7.60734 11.4746 7.61085 11.4816 7.61513 11.4816C7.61941 11.4816 7.62291 11.4887 7.62291 11.4972C7.62291 11.5058 7.62642 11.5128 7.6307 11.5128C7.63498 11.5128 7.63849 11.5233 7.63849 11.5362C7.63849 11.549 7.64199 11.5595 7.64627 11.5595C7.65056 11.5595 7.65406 11.5665 7.65406 11.5751C7.65406 11.5836 7.65756 11.5907 7.66185 11.5907C7.66613 11.5907 7.66963 11.5977 7.66963 11.6062C7.66963 11.6148 7.67314 11.6218 7.67742 11.6218C7.6817 11.6218 7.68521 11.6288 7.68521 11.6374C7.68521 11.6459 7.68871 11.6529 7.69299 11.6529C7.69727 11.6529 7.70078 11.66 7.70078 11.6685C7.70078 11.6771 7.70428 11.6841 7.70857 11.6841C7.71285 11.6841 7.71635 11.6911 7.71635 11.6997C7.71635 11.7082 7.71986 11.7152 7.72414 11.7152C7.72842 11.7152 7.73192 11.7222 7.73192 11.7308C7.73192 11.7394 7.73543 11.7464 7.73971 11.7464C7.74399 11.7464 7.7475 11.7534 7.7475 11.762C7.7475 11.7705 7.751 11.7775 7.75528 11.7775C7.75957 11.7775 7.76307 11.7845 7.76307 11.7931C7.76307 11.8017 7.76657 11.8087 7.77086 11.8087C7.77514 11.8087 7.77864 11.8192 7.77864 11.832C7.77864 11.8449 7.78215 11.8554 7.78643 11.8554C7.79071 11.8554 7.79422 11.8624 7.79422 11.871C7.79422 11.8795 7.79772 11.8865 7.802 11.8865C7.80628 11.8865 7.80979 11.8935 7.80979 11.9021C7.80979 11.9107 7.81329 11.9177 7.81758 11.9177C7.82186 11.9177 7.82536 11.9247 7.82536 11.9333C7.82536 11.9418 7.82887 11.9488 7.83315 11.9488C7.83743 11.9488 7.84093 11.9558 7.84093 11.9644C7.84093 11.973 7.84444 11.98 7.84872 11.98C7.853 11.98 7.85651 11.987 7.85651 11.9956C7.85651 12.0041 7.86001 12.0111 7.86429 12.0111C7.86858 12.0111 7.87208 12.0181 7.87208 12.0267C7.87208 12.0353 7.87558 12.0423 7.87987 12.0423C7.88415 12.0423 7.88765 12.0493 7.88765 12.0578C7.88765 12.0664 7.89116 12.0734 7.89544 12.0734C7.89972 12.0734 7.90323 12.0797 7.90323 12.0873C7.90323 12.0949 7.91023 12.1062 7.9188 12.1123C7.92736 12.1185 7.93437 12.1298 7.93437 12.1374C7.93437 12.145 7.93788 12.1513 7.94216 12.1513C7.94644 12.1513 7.94994 12.1583 7.94994 12.1669C7.94994 12.1754 7.95345 12.1824 7.95773 12.1824C7.96201 12.1824 7.96552 12.1894 7.96552 12.198C7.96552 12.2066 7.96902 12.2136 7.9733 12.2136C7.97759 12.2136 7.98109 12.2206 7.98109 12.2291C7.98109 12.2377 7.98459 12.2447 7.98888 12.2447C7.99316 12.2447 7.99666 12.2517 7.99666 12.2603C7.99666 12.2689 8.00017 12.2759 8.00445 12.2759C8.00873 12.2759 8.01224 12.2829 8.01224 12.2914C8.01224 12.3 8.01574 12.307 8.02002 12.307C8.0243 12.307 8.02781 12.314 8.02781 12.3226C8.02781 12.3311 8.03131 12.3382 8.0356 12.3382C8.03988 12.3382 8.04338 12.3452 8.04338 12.3537C8.04338 12.3623 8.04689 12.3693 8.05117 12.3693C8.05545 12.3693 8.05895 12.3755 8.05895 12.3832C8.05895 12.3908 8.06596 12.4021 8.07453 12.4082C8.08309 12.4144 8.0901 12.4257 8.0901 12.4333C8.0901 12.4409 8.0936 12.4472 8.09789 12.4472C8.10217 12.4472 8.10567 12.4542 8.10567 12.4627C8.10567 12.4713 8.10918 12.4783 8.11346 12.4783C8.11774 12.4783 8.12125 12.4853 8.12125 12.4939C8.12125 12.5024 8.12475 12.5095 8.12903 12.5095C8.13331 12.5095 8.13682 12.5157 8.13682 12.5233C8.13682 12.5309 8.14383 12.5422 8.15239 12.5484C8.16096 12.5546 8.16796 12.5658 8.16796 12.5735C8.16796 12.5811 8.17147 12.5873 8.17575 12.5873C8.18003 12.5873 8.18354 12.5943 8.18354 12.6029C8.18354 12.6115 8.18704 12.6185 8.19132 12.6185C8.19561 12.6185 8.19911 12.6247 8.19911 12.6323C8.19911 12.6399 8.20612 12.6512 8.21468 12.6574C8.22325 12.6636 8.23026 12.6749 8.23026 12.6825C8.23026 12.6901 8.23376 12.6963 8.23804 12.6963C8.24232 12.6963 8.24583 12.7033 8.24583 12.7119C8.24583 12.7205 8.24933 12.7275 8.25362 12.7275C8.2579 12.7275 8.2614 12.7337 8.2614 12.7413C8.2614 12.749 8.26841 12.7602 8.27697 12.7664C8.28554 12.7726 8.29255 12.7839 8.29255 12.7915C8.29255 12.7991 8.29605 12.8053 8.30033 12.8053C8.30462 12.8053 8.30812 12.8123 8.30812 12.8209C8.30812 12.8295 8.31162 12.8365 8.31591 12.8365C8.32019 12.8365 8.32369 12.8427 8.32369 12.8503C8.32369 12.858 8.3307 12.8692 8.33927 12.8754C8.34783 12.8816 8.35484 12.8921 8.35484 12.8988C8.35484 12.9054 8.36185 12.916 8.37041 12.9221C8.37898 12.9283 8.38598 12.9396 8.38598 12.9472C8.38598 12.9548 8.38949 12.9611 8.39377 12.9611C8.39805 12.9611 8.40156 12.9673 8.40156 12.9749C8.40156 12.9825 8.40857 12.9938 8.41713 13C8.4257 13.0062 8.4327 13.0175 8.4327 13.0251C8.4327 13.0327 8.43621 13.0389 8.44049 13.0389C8.44477 13.0389 8.44828 13.0452 8.44828 13.0528C8.44828 13.0604 8.45528 13.0717 8.46385 13.0779C8.47241 13.084 8.47942 13.0946 8.47942 13.1012C8.47942 13.1079 8.48643 13.1184 8.49499 13.1246C8.50356 13.1308 8.51057 13.142 8.51057 13.1497C8.51057 13.1573 8.51407 13.1635 8.51835 13.1635C8.52264 13.1635 8.52614 13.1698 8.52614 13.1774C8.52614 13.185 8.53315 13.1963 8.54171 13.2024C8.55028 13.2086 8.55729 13.2191 8.55729 13.2258C8.55729 13.2325 8.56429 13.243 8.57286 13.2492C8.58142 13.2553 8.58843 13.2659 8.58843 13.2725C8.58843 13.2792 8.59544 13.2897 8.604 13.2959C8.61257 13.3021 8.61958 13.3126 8.61958 13.3192C8.61958 13.3259 8.62659 13.3364 8.63515 13.3426C8.64372 13.3488 8.65072 13.3601 8.65072 13.3677C8.65072 13.3753 8.65423 13.3815 8.65851 13.3815C8.66279 13.3815 8.6663 13.3878 8.6663 13.3954C8.6663 13.403 8.6733 13.4143 8.68187 13.4205C8.69043 13.4266 8.69744 13.4372 8.69744 13.4438C8.69744 13.4505 8.70445 13.461 8.71301 13.4672C8.72158 13.4734 8.72859 13.4839 8.72859 13.4905C8.72859 13.4972 8.7356 13.5077 8.74416 13.5139C8.75273 13.5201 8.75973 13.53 8.75973 13.5359C8.75973 13.5418 8.77024 13.5564 8.78309 13.5684C8.79594 13.5804 8.80645 13.5951 8.80645 13.601C8.80645 13.6069 8.81346 13.6167 8.82202 13.6229C8.83059 13.6291 8.8376 13.6396 8.8376 13.6463C8.8376 13.6529 8.84461 13.6635 8.85317 13.6696C8.86174 13.6758 8.86874 13.6863 8.86874 13.693C8.86874 13.6997 8.87575 13.7102 8.88432 13.7164C8.89288 13.7225 8.89989 13.733 8.89989 13.7397C8.89989 13.7464 8.9069 13.7569 8.91546 13.7631C8.92403 13.7692 8.93103 13.7791 8.93103 13.785C8.93103 13.7909 8.94155 13.8056 8.95439 13.8176C8.96724 13.8296 8.97775 13.8442 8.97775 13.8501C8.97775 13.856 8.98476 13.8659 8.99333 13.8721C9.00189 13.8783 9.0089 13.8881 9.0089 13.894C9.0089 13.8999 9.01941 13.9146 9.03226 13.9266C9.04511 13.9386 9.05562 13.9532 9.05562 13.9591C9.05562 13.965 9.06263 13.9749 9.07119 13.9811C9.07976 13.9873 9.08676 13.9971 9.08676 14.0029C9.08676 14.0087 9.10078 14.0269 9.11791 14.0434C9.13504 14.0598 9.14905 14.0781 9.14905 14.0839C9.14905 14.0897 9.15606 14.0995 9.16463 14.1057C9.17319 14.1118 9.1802 14.1217 9.1802 14.1276C9.1802 14.1335 9.19071 14.1482 9.20356 14.1602C9.21641 14.1722 9.22692 14.1861 9.22692 14.1912C9.22692 14.1962 9.24093 14.2138 9.25806 14.2303C9.27519 14.2467 9.28921 14.2643 9.28921 14.2693C9.28921 14.2744 9.29972 14.2883 9.31257 14.3003C9.32542 14.3123 9.33593 14.3263 9.33593 14.3315C9.33593 14.3366 9.34644 14.3506 9.35929 14.3626C9.37214 14.3746 9.38265 14.3886 9.38265 14.3936C9.38265 14.3987 9.39666 14.4162 9.41379 14.4327C9.43092 14.4492 9.44494 14.4667 9.44494 14.4716C9.44494 14.4766 9.45895 14.4941 9.47608 14.5106C9.49321 14.527 9.50723 14.5445 9.50723 14.5495C9.50723 14.5545 9.52125 14.572 9.53838 14.5884C9.55551 14.6049 9.56952 14.6224 9.56952 14.6273C9.56952 14.6322 9.58704 14.6532 9.60845 14.6741C9.62987 14.6949 9.64739 14.716 9.64739 14.7209C9.64739 14.7258 9.6614 14.7433 9.67853 14.7597C9.69566 14.7762 9.70968 14.7937 9.70968 14.7986C9.70968 14.8035 9.7272 14.8245 9.74861 14.8454C9.77002 14.8662 9.78754 14.8872 9.78754 14.892C9.78754 14.8968 9.80857 14.9214 9.83426 14.9466C9.85996 14.9718 9.88098 14.9963 9.88098 15.0011C9.88098 15.0058 9.90551 15.0338 9.93548 15.0634C9.96546 15.093 9.98999 15.121 9.98999 15.1257C9.98999 15.1303 10.018 15.1619 10.0523 15.1958C10.0865 15.2297 10.1146 15.2612 10.1146 15.2658C10.1146 15.2704 10.1496 15.309 10.1924 15.3515C10.2353 15.394 10.2703 15.4325 10.2703 15.4371C10.2703 15.4416 10.3194 15.4942 10.3793 15.5539C10.4393 15.6137 10.4883 15.6662 10.4883 15.6706C10.4883 15.681 11.0542 16.2469 11.0647 16.2469C11.0691 16.2469 11.1251 16.2995 11.1891 16.3637C11.2531 16.428 11.3092 16.4805 11.3137 16.4805C11.3183 16.4805 11.3603 16.5191 11.4071 16.5662C11.454 16.6133 11.496 16.6518 11.5006 16.6518C11.5052 16.6518 11.5367 16.6799 11.5706 16.7141C11.6045 16.7484 11.6361 16.7764 11.6408 16.7764C11.6454 16.7764 11.6734 16.8009 11.703 16.8309C11.7326 16.8609 11.7606 16.8854 11.7653 16.8854C11.7701 16.8854 11.7946 16.9065 11.8198 16.9321C11.845 16.9578 11.8695 16.9789 11.8743 16.9789C11.879 16.9789 11.907 17.0034 11.9366 17.0334C11.9662 17.0633 11.9943 17.0879 11.9991 17.0879C12.0039 17.0879 12.0214 17.1019 12.0378 17.119C12.0543 17.1362 12.0718 17.1502 12.0767 17.1502C12.0815 17.1502 12.1026 17.1677 12.1235 17.1891C12.1443 17.2105 12.1654 17.228 12.1702 17.228C12.175 17.228 12.196 17.2456 12.2169 17.267C12.2378 17.2884 12.2588 17.3059 12.2637 17.3059C12.2686 17.3059 12.2861 17.3199 12.3026 17.337C12.319 17.3542 12.3365 17.3682 12.3415 17.3682C12.3464 17.3682 12.364 17.3822 12.3804 17.3993C12.3969 17.4165 12.4144 17.4305 12.4194 17.4305C12.4243 17.4305 12.4418 17.4445 12.4583 17.4616C12.4747 17.4788 12.4923 17.4928 12.4974 17.4928C12.5024 17.4928 12.5164 17.5033 12.5284 17.5161C12.5404 17.529 12.5543 17.5395 12.5594 17.5395C12.5644 17.5395 12.582 17.5535 12.5984 17.5706C12.6149 17.5878 12.6324 17.6018 12.6374 17.6018C12.6423 17.6018 12.6598 17.6158 12.6763 17.6329C12.6928 17.6501 12.7104 17.6641 12.7154 17.6641C12.7204 17.6641 12.7344 17.6746 12.7464 17.6874C12.7584 17.7003 12.7724 17.7108 12.7775 17.7108C12.7827 17.7108 12.7967 17.7213 12.8087 17.7341C12.8207 17.747 12.8347 17.7575 12.8398 17.7575C12.845 17.7575 12.859 17.768 12.871 17.7809C12.883 17.7937 12.8976 17.8042 12.9035 17.8042C12.9094 17.8042 12.9193 17.8112 12.9255 17.8198C12.9316 17.8284 12.9415 17.8354 12.9473 17.8354C12.9531 17.8354 12.9713 17.8494 12.9878 17.8665C13.0042 17.8836 13.0218 17.8977 13.0269 17.8977C13.0319 17.8977 13.0458 17.9082 13.0578 17.921C13.0698 17.9339 13.0839 17.9444 13.089 17.9444C13.0941 17.9444 13.1081 17.9549 13.1201 17.9677C13.1321 17.9806 13.1468 17.9911 13.1527 17.9911C13.1586 17.9911 13.1685 17.9981 13.1746 18.0067C13.1808 18.0152 13.1907 18.0222 13.1966 18.0222C13.2025 18.0222 13.2171 18.0328 13.2291 18.0456C13.2411 18.0585 13.2558 18.069 13.2617 18.069C13.2676 18.069 13.2775 18.076 13.2836 18.0845C13.2898 18.0931 13.2997 18.1001 13.3056 18.1001C13.3115 18.1001 13.3262 18.1106 13.3382 18.1235C13.3502 18.1363 13.3648 18.1468 13.3707 18.1468C13.3766 18.1468 13.3865 18.1538 13.3927 18.1624C13.3988 18.171 13.4093 18.178 13.416 18.178C13.4227 18.178 13.4332 18.185 13.4394 18.1935C13.4456 18.2021 13.4554 18.2091 13.4613 18.2091C13.4672 18.2091 13.4819 18.2196 13.4939 18.2325C13.5059 18.2453 13.5205 18.2558 13.5264 18.2558C13.5323 18.2558 13.5422 18.2628 13.5484 18.2714C13.5546 18.28 13.5651 18.287 13.5717 18.287C13.5784 18.287 13.5889 18.294 13.5951 18.3026C13.6013 18.3111 13.6118 18.3181 13.6185 18.3181C13.6251 18.3181 13.6356 18.3251 13.6418 18.3337C13.648 18.3423 13.6585 18.3493 13.6652 18.3493C13.6719 18.3493 13.6824 18.3563 13.6885 18.3649C13.6947 18.3734 13.7046 18.3804 13.7105 18.3804C13.7164 18.3804 13.731 18.3909 13.743 18.4038C13.755 18.4166 13.7697 18.4271 13.7756 18.4271C13.7815 18.4271 13.7914 18.4341 13.7976 18.4427C13.8037 18.4513 13.8142 18.4583 13.8209 18.4583C13.8276 18.4583 13.8381 18.4653 13.8443 18.4739C13.8504 18.4824 13.861 18.4894 13.8676 18.4894C13.8743 18.4894 13.8848 18.4964 13.891 18.505C13.8972 18.5136 13.9077 18.5206 13.9143 18.5206C13.921 18.5206 13.9315 18.5276 13.9377 18.5362C13.9439 18.5447 13.9544 18.5517 13.9611 18.5517C13.9677 18.5517 13.9783 18.5587 13.9844 18.5673C13.9906 18.5759 14.0011 18.5829 14.0078 18.5829C14.0145 18.5829 14.025 18.5899 14.0311 18.5984C14.0373 18.607 14.0478 18.614 14.0545 18.614C14.0612 18.614 14.0717 18.621 14.0779 18.6296C14.084 18.6382 14.0953 18.6452 14.1029 18.6452C14.1106 18.6452 14.1168 18.6487 14.1168 18.6529C14.1168 18.6572 14.123 18.6607 14.1306 18.6607C14.1383 18.6607 14.1496 18.6677 14.1557 18.6763C14.1619 18.6849 14.1724 18.6919 14.1791 18.6919C14.1858 18.6919 14.1963 18.6989 14.2024 18.7075C14.2086 18.716 14.2191 18.723 14.2258 18.723C14.2325 18.723 14.243 18.73 14.2492 18.7386C14.2553 18.7472 14.2666 18.7542 14.2742 18.7542C14.2819 18.7542 14.2881 18.7577 14.2881 18.762C14.2881 18.7662 14.2943 18.7697 14.3019 18.7697C14.3096 18.7697 14.3209 18.7768 14.327 18.7853C14.3332 18.7939 14.3437 18.8009 14.3504 18.8009C14.3571 18.8009 14.3676 18.8079 14.3737 18.8165C14.3799 18.825 14.3904 18.832 14.3971 18.832C14.4038 18.832 14.4143 18.839 14.4205 18.8476C14.4266 18.8562 14.4379 18.8632 14.4455 18.8632C14.4532 18.8632 14.4594 18.8667 14.4594 18.871C14.4594 18.8753 14.4656 18.8788 14.4733 18.8788C14.4809 18.8788 14.4922 18.8858 14.4983 18.8943C14.5045 18.9029 14.5158 18.9099 14.5234 18.9099C14.531 18.9099 14.5373 18.9134 14.5373 18.9177C14.5373 18.922 14.5435 18.9255 14.5511 18.9255C14.5587 18.9255 14.57 18.9325 14.5762 18.941C14.5824 18.9496 14.5929 18.9566 14.5996 18.9566C14.6062 18.9566 14.6167 18.9636 14.6229 18.9722C14.6291 18.9808 14.6404 18.9878 14.648 18.9878C14.6556 18.9878 14.6618 18.9913 14.6618 18.9956C14.6618 18.9998 14.6681 19.0033 14.6757 19.0033C14.6833 19.0033 14.6946 19.0103 14.7008 19.0189C14.707 19.0275 14.7182 19.0345 14.7259 19.0345C14.7335 19.0345 14.7397 19.038 14.7397 19.0423C14.7397 19.0466 14.7467 19.0501 14.7553 19.0501C14.7638 19.0501 14.7709 19.0536 14.7709 19.0578C14.7709 19.0621 14.7771 19.0656 14.7847 19.0656C14.7923 19.0656 14.8036 19.0726 14.8098 19.0812C14.816 19.0898 14.8272 19.0968 14.8349 19.0968C14.8425 19.0968 14.8487 19.1003 14.8487 19.1046C14.8487 19.1088 14.855 19.1123 14.8626 19.1123C14.8702 19.1123 14.8815 19.1194 14.8877 19.1279C14.8938 19.1365 14.9051 19.1435 14.9127 19.1435C14.9203 19.1435 14.9266 19.147 14.9266 19.1513C14.9266 19.1556 14.9328 19.1591 14.9404 19.1591C14.9481 19.1591 14.9593 19.1661 14.9655 19.1746C14.9717 19.1832 14.983 19.1902 14.9906 19.1902C14.9982 19.1902 15.0044 19.1937 15.0044 19.198C15.0044 19.2023 15.0115 19.2058 15.02 19.2058C15.0286 19.2058 15.0356 19.2093 15.0356 19.2136C15.0356 19.2179 15.0426 19.2214 15.0512 19.2214C15.0597 19.2214 15.0667 19.2249 15.0667 19.2291C15.0667 19.2334 15.073 19.2369 15.0806 19.2369C15.0882 19.2369 15.0995 19.2439 15.1057 19.2525C15.1118 19.2611 15.1231 19.2681 15.1308 19.2681C15.1384 19.2681 15.1446 19.2716 15.1446 19.2759C15.1446 19.2801 15.1516 19.2836 15.1602 19.2836C15.1687 19.2836 15.1758 19.2872 15.1758 19.2914C15.1758 19.2957 15.182 19.2992 15.1896 19.2992C15.1972 19.2992 15.2085 19.3062 15.2147 19.3148C15.2209 19.3234 15.2321 19.3304 15.2398 19.3304C15.2474 19.3304 15.2536 19.3339 15.2536 19.3382C15.2536 19.3424 15.2606 19.3459 15.2692 19.3459C15.2778 19.3459 15.2848 19.3494 15.2848 19.3537C15.2848 19.358 15.2918 19.3615 15.3003 19.3615C15.3089 19.3615 15.3159 19.365 15.3159 19.3693C15.3159 19.3736 15.3229 19.3771 15.3315 19.3771C15.34 19.3771 15.3471 19.3806 15.3471 19.3849C15.3471 19.3892 15.3533 19.3927 15.3609 19.3927C15.3685 19.3927 15.3798 19.3997 15.386 19.4082C15.3922 19.4168 15.4034 19.4238 15.4111 19.4238C15.4187 19.4238 15.4249 19.4273 15.4249 19.4316C15.4249 19.4359 15.4319 19.4394 15.4405 19.4394C15.4491 19.4394 15.4561 19.4429 15.4561 19.4472C15.4561 19.4514 15.4631 19.455 15.4716 19.455C15.4802 19.455 15.4872 19.4585 15.4872 19.4627C15.4872 19.467 15.4942 19.4705 15.5028 19.4705C15.5113 19.4705 15.5184 19.474 15.5184 19.4783C15.5184 19.4826 15.5254 19.4861 15.5339 19.4861C15.5425 19.4861 15.5495 19.4896 15.5495 19.4939C15.5495 19.4982 15.5565 19.5017 15.5651 19.5017C15.5736 19.5017 15.5806 19.5052 15.5806 19.5095C15.5806 19.5137 15.5877 19.5172 15.5962 19.5172C15.6048 19.5172 15.6118 19.5207 15.6118 19.525C15.6118 19.5293 15.6188 19.5328 15.6274 19.5328C15.6359 19.5328 15.6429 19.5363 15.6429 19.5406C15.6429 19.5449 15.6499 19.5484 15.6585 19.5484C15.6671 19.5484 15.6741 19.5519 15.6741 19.5562C15.6741 19.5605 15.6811 19.564 15.6897 19.564C15.6982 19.564 15.7052 19.5675 15.7052 19.5717C15.7052 19.576 15.7122 19.5795 15.7208 19.5795C15.7294 19.5795 15.7364 19.583 15.7364 19.5873C15.7364 19.5916 15.7434 19.5951 15.7519 19.5951C15.7605 19.5951 15.7675 19.5986 15.7675 19.6029C15.7675 19.6072 15.778 19.6107 15.7909 19.6107C15.8037 19.6107 15.8142 19.6142 15.8142 19.6185C15.8142 19.6227 15.8212 19.6263 15.8298 19.6263C15.8384 19.6263 15.8454 19.6298 15.8454 19.634C15.8454 19.6383 15.8559 19.6418 15.8687 19.6418C15.8816 19.6418 15.8921 19.6453 15.8921 19.6496C15.8921 19.6539 15.9026 19.6574 15.9155 19.6574C15.9283 19.6574 15.9388 19.6609 15.9388 19.6652C15.9388 19.6695 15.9458 19.673 15.9544 19.673C15.963 19.673 15.97 19.6765 15.97 19.6808C15.97 19.685 15.9805 19.6885 15.9933 19.6885C16.0062 19.6885 16.0167 19.692 16.0167 19.6963C16.0167 19.7006 16.0272 19.7041 16.04 19.7041C16.0529 19.7041 16.0634 19.7076 16.0634 19.7119C16.0634 19.7162 16.0739 19.7197 16.0868 19.7197C16.0996 19.7197 16.1101 19.7232 16.1101 19.7275C16.1101 19.7318 16.1206 19.7353 16.1335 19.7353C16.1463 19.7353 16.1568 19.7388 16.1568 19.743C16.1568 19.7473 16.1674 19.7508 16.1802 19.7508C16.193 19.7508 16.2036 19.7543 16.2036 19.7586C16.2036 19.7629 16.2176 19.7664 16.2347 19.7664C16.2518 19.7664 16.2659 19.7699 16.2659 19.7742C16.2659 19.7785 16.2764 19.782 16.2892 19.782C16.3021 19.782 16.3126 19.7855 16.3126 19.7898C16.3126 19.794 16.3266 19.7976 16.3437 19.7976C16.3608 19.7976 16.3749 19.8011 16.3749 19.8053C16.3749 19.8096 16.3854 19.8131 16.3982 19.8131C16.4111 19.8131 16.4216 19.8166 16.4216 19.8209C16.4216 19.8252 16.4356 19.8287 16.4527 19.8287C16.4699 19.8287 16.4839 19.8322 16.4839 19.8365C16.4839 19.8408 16.4944 19.8443 16.5072 19.8443C16.5201 19.8443 16.5306 19.8478 16.5306 19.8521C16.5306 19.8563 16.5481 19.8598 16.5695 19.8598C16.5909 19.8598 16.6085 19.8633 16.6085 19.8676C16.6085 19.8719 16.6225 19.8754 16.6396 19.8754C16.6567 19.8754 16.6707 19.8789 16.6707 19.8832C16.6707 19.8875 16.6883 19.891 16.7097 19.891C16.7311 19.891 16.7486 19.8945 16.7486 19.8988C16.7486 19.9031 16.7661 19.9066 16.7875 19.9066C16.809 19.9066 16.8265 19.9101 16.8265 19.9143C16.8265 19.9187 16.8472 19.9221 16.8732 19.9221C16.8991 19.9221 16.9199 19.9256 16.9199 19.9299C16.9199 19.9344 16.9433 19.9377 16.9744 19.9377C17.0056 19.9377 17.0289 19.941 17.0289 19.9455C17.0289 19.9499 17.0523 19.9533 17.0834 19.9533C17.1146 19.9533 17.1379 19.9566 17.1379 19.9611C17.1379 19.9657 17.1665 19.9689 17.208 19.9689C17.2495 19.9689 17.2781 19.972 17.2781 19.9766C17.2781 19.9815 17.3274 19.9844 17.4105 19.9844C17.4935 19.9844 17.5428 19.9873 17.5428 19.9922C17.5428 19.997 17.5792 20 17.6363 20C17.6934 20 17.7297 19.997 17.7297 19.9922C17.7297 19.9873 17.779 19.9844 17.8621 19.9844C17.9451 19.9844 17.9944 19.9815 17.9944 19.9766C17.9944 19.972 18.023 19.9689 18.0645 19.9689C18.106 19.9689 18.1346 19.9657 18.1346 19.9611C18.1346 19.9566 18.158 19.9533 18.1891 19.9533C18.2202 19.9533 18.2436 19.9499 18.2436 19.9455C18.2436 19.9412 18.2644 19.9377 18.2903 19.9377C18.3163 19.9377 18.337 19.9343 18.337 19.9299C18.337 19.9256 18.3546 19.9221 18.376 19.9221C18.3974 19.9221 18.4149 19.9186 18.4149 19.9143C18.4149 19.9101 18.4324 19.9066 18.4538 19.9066C18.4753 19.9066 18.4928 19.9031 18.4928 19.8988C18.4928 19.8945 18.5068 19.891 18.5239 19.891C18.541 19.891 18.5551 19.8875 18.5551 19.8832C18.5551 19.8789 18.5691 19.8754 18.5862 19.8754C18.6033 19.8754 18.6174 19.8719 18.6174 19.8676C18.6174 19.8633 18.6314 19.8598 18.6485 19.8598C18.6656 19.8598 18.6796 19.8563 18.6796 19.8521C18.6796 19.8478 18.6902 19.8443 18.703 19.8443C18.7159 19.8443 18.7264 19.8408 18.7264 19.8365C18.7264 19.8322 18.7369 19.8287 18.7497 19.8287C18.7626 19.8287 18.7731 19.8252 18.7731 19.8209C18.7731 19.8166 18.7836 19.8131 18.7964 19.8131C18.8093 19.8131 18.8198 19.8096 18.8198 19.8053C18.8198 19.8011 18.8303 19.7976 18.8432 19.7976C18.856 19.7976 18.8665 19.794 18.8665 19.7898C18.8665 19.7855 18.877 19.782 18.8899 19.782C18.9027 19.782 18.9132 19.7785 18.9132 19.7742C18.9132 19.7699 18.9237 19.7664 18.9366 19.7664C18.9494 19.7664 18.96 19.7629 18.96 19.7586C18.96 19.7543 18.967 19.7508 18.9755 19.7508C18.9841 19.7508 18.9911 19.7473 18.9911 19.743C18.9911 19.7388 19.0016 19.7353 19.0145 19.7353C19.0273 19.7353 19.0378 19.7318 19.0378 19.7275C19.0378 19.7232 19.0448 19.7197 19.0534 19.7197C19.062 19.7197 19.069 19.7162 19.069 19.7119C19.069 19.7076 19.0795 19.7041 19.0923 19.7041C19.1052 19.7041 19.1157 19.7006 19.1157 19.6963C19.1157 19.692 19.1227 19.6885 19.1313 19.6885C19.1398 19.6885 19.1468 19.685 19.1468 19.6808C19.1468 19.6765 19.1538 19.673 19.1624 19.673C19.171 19.673 19.178 19.6695 19.178 19.6652C19.178 19.6609 19.185 19.6574 19.1935 19.6574C19.2021 19.6574 19.2091 19.6539 19.2091 19.6496C19.2091 19.6453 19.2161 19.6418 19.2247 19.6418C19.2333 19.6418 19.2403 19.6383 19.2403 19.634C19.2403 19.6298 19.2473 19.6263 19.2558 19.6263C19.2644 19.6263 19.2714 19.6227 19.2714 19.6185C19.2714 19.6142 19.2784 19.6107 19.287 19.6107C19.2956 19.6107 19.3026 19.6072 19.3026 19.6029C19.3026 19.5986 19.3096 19.5951 19.3181 19.5951C19.3267 19.5951 19.3337 19.5916 19.3337 19.5873C19.3337 19.583 19.3407 19.5795 19.3493 19.5795C19.3578 19.5795 19.3649 19.576 19.3649 19.5717C19.3649 19.5675 19.3719 19.564 19.3804 19.564C19.389 19.564 19.396 19.5605 19.396 19.5562C19.396 19.5519 19.403 19.5484 19.4116 19.5484C19.4201 19.5484 19.4271 19.5449 19.4271 19.5406C19.4271 19.5363 19.4334 19.5328 19.441 19.5328C19.4486 19.5328 19.4599 19.5258 19.4661 19.5172C19.4722 19.5087 19.4835 19.5017 19.4912 19.5017C19.4988 19.5017 19.505 19.4982 19.505 19.4939C19.505 19.4896 19.5112 19.4861 19.5189 19.4861C19.5265 19.4861 19.5378 19.4791 19.5439 19.4705C19.5501 19.462 19.5614 19.455 19.569 19.455C19.5766 19.455 19.5829 19.4514 19.5829 19.4472C19.5829 19.4429 19.5891 19.4394 19.5967 19.4394C19.6043 19.4394 19.6156 19.4324 19.6218 19.4238C19.628 19.4152 19.6385 19.4082 19.6452 19.4082C19.6518 19.4082 19.6623 19.4012 19.6685 19.3927C19.6747 19.3841 19.6852 19.3771 19.6919 19.3771C19.6986 19.3771 19.7091 19.3701 19.7152 19.3615C19.7214 19.3529 19.7319 19.3459 19.7386 19.3459C19.7453 19.3459 19.7558 19.3389 19.762 19.3304C19.7681 19.3218 19.7779 19.3148 19.7838 19.3148C19.7896 19.3148 19.8078 19.3008 19.8242 19.2836C19.8407 19.2665 19.8583 19.2525 19.8633 19.2525C19.8684 19.2525 19.8823 19.242 19.8943 19.2291C19.9063 19.2163 19.9203 19.2058 19.9253 19.2058C19.9304 19.2058 19.9479 19.1918 19.9644 19.1746C19.9809 19.1575 19.9983 19.1435 20.0032 19.1435C20.0081 19.1435 20.0292 19.126 20.0501 19.1046C20.0709 19.0831 20.0917 19.0656 20.0963 19.0656C20.1072 19.0656 20.455 18.7179 20.455 18.7071C20.455 18.7025 20.476 18.6782 20.5017 18.6529C20.5274 18.6277 20.5484 18.6031 20.5484 18.5983C20.5484 18.5934 20.5624 18.576 20.5795 18.5595C20.5967 18.543 20.6107 18.5255 20.6107 18.5206C20.6107 18.5156 20.6247 18.4981 20.6418 18.4816C20.659 18.4652 20.673 18.447 20.673 18.4411C20.673 18.4353 20.68 18.4255 20.6885 18.4194C20.6971 18.4132 20.7041 18.4033 20.7041 18.3974C20.7041 18.3915 20.7146 18.3768 20.7275 18.3649C20.7403 18.3529 20.7508 18.3382 20.7508 18.3323C20.7508 18.3264 20.7578 18.3165 20.7664 18.3103C20.775 18.3042 20.782 18.2937 20.782 18.287C20.782 18.2803 20.789 18.2698 20.7976 18.2636C20.8061 18.2575 20.8131 18.2462 20.8131 18.2385C20.8131 18.2309 20.8166 18.2247 20.8209 18.2247C20.8252 18.2247 20.8287 18.2185 20.8287 18.2108C20.8287 18.2032 20.8357 18.1919 20.8443 18.1858C20.8528 18.1796 20.8598 18.1691 20.8598 18.1624C20.8598 18.1557 20.8669 18.1452 20.8754 18.139C20.884 18.1329 20.891 18.1216 20.891 18.114C20.891 18.1063 20.8945 18.1001 20.8988 18.1001C20.9031 18.1001 20.9066 18.0896 20.9066 18.0768C20.9066 18.0639 20.9101 18.0534 20.9143 18.0534C20.9186 18.0534 20.9221 18.0464 20.9221 18.0378C20.9221 18.0293 20.9256 18.0222 20.9299 18.0222C20.9342 18.0222 20.9377 18.0117 20.9377 17.9989C20.9377 17.986 20.9412 17.9755 20.9455 17.9755C20.9498 17.9755 20.9533 17.965 20.9533 17.9522C20.9533 17.9393 20.9568 17.9288 20.9611 17.9288C20.9654 17.9288 20.9689 17.9183 20.9689 17.9055C20.9689 17.8926 20.9724 17.8821 20.9766 17.8821C20.981 17.8821 20.9844 17.8613 20.9844 17.8354C20.9844 17.8094 20.9879 17.7887 20.9922 17.7887C20.9971 17.7887 21 17.7393 21 17.6563C21 17.5732 20.9971 17.5239 20.9922 17.5239C20.9879 17.5239 20.9844 17.5064 20.9844 17.485C20.9844 17.4636 20.9809 17.4461 20.9766 17.4461C20.9724 17.4461 20.9689 17.432 20.9689 17.4149C20.9689 17.3978 20.9654 17.3838 20.9611 17.3838C20.9568 17.3838 20.9533 17.3732 20.9533 17.3604C20.9533 17.3476 20.9498 17.337 20.9455 17.337C20.9412 17.337 20.9377 17.3265 20.9377 17.3137C20.9377 17.3008 20.9342 17.2903 20.9299 17.2903C20.9256 17.2903 20.9221 17.2798 20.9221 17.267C20.9221 17.2541 20.9186 17.2436 20.9143 17.2436C20.9101 17.2436 20.9066 17.2366 20.9066 17.228C20.9066 17.2195 20.9031 17.2125 20.8988 17.2125C20.8945 17.2125 20.891 17.2019 20.891 17.1891C20.891 17.1763 20.8875 17.1657 20.8832 17.1657C20.8789 17.1657 20.8754 17.1595 20.8754 17.1519C20.8754 17.1443 20.8684 17.133 20.8598 17.1268C20.8513 17.1206 20.8443 17.1094 20.8443 17.1017C20.8443 17.0941 20.8408 17.0879 20.8365 17.0879C20.8322 17.0879 20.8287 17.0809 20.8287 17.0723C20.8287 17.0637 20.8252 17.0567 20.8209 17.0567C20.8166 17.0567 20.8131 17.0505 20.8131 17.0429C20.8131 17.0353 20.8061 17.024 20.7976 17.0178C20.789 17.0116 20.782 17.0017 20.782 16.9958C20.782 16.9899 20.7715 16.9753 20.7586 16.9633C20.7458 16.9513 20.7353 16.9375 20.7353 16.9327C20.7353 16.9205 20.6678 16.8543 20.6554 16.8543C20.6498 16.8543 20.6402 16.8473 20.634 16.8387C20.6279 16.8301 20.6174 16.8231 20.6107 16.8231C20.604 16.8231 20.5935 16.8161 20.5873 16.8076C20.5811 16.799 20.5706 16.792 20.564 16.792C20.5573 16.792 20.5468 16.785 20.5406 16.7764C20.5344 16.7679 20.5239 16.7608 20.5172 16.7608C20.5106 16.7608 20.5001 16.7538 20.4939 16.7453C20.4877 16.7367 20.4772 16.7297 20.4705 16.7297C20.4639 16.7297 20.4533 16.7227 20.4472 16.7141C20.441 16.7056 20.4305 16.6986 20.4238 16.6986C20.4171 16.6986 20.4066 16.6915 20.4004 16.683C20.3943 16.6744 20.3838 16.6674 20.3771 16.6674C20.3704 16.6674 20.3599 16.6604 20.3537 16.6518C20.3476 16.6433 20.3363 16.6363 20.3286 16.6363C20.321 16.6363 20.3148 16.6328 20.3148 16.6285C20.3148 16.6242 20.3086 16.6207 20.3009 16.6207C20.2933 16.6207 20.282 16.6137 20.2759 16.6051C20.2697 16.5966 20.2598 16.5895 20.2539 16.5895C20.248 16.5895 20.2334 16.579 20.2214 16.5662C20.2094 16.5533 20.1947 16.5428 20.1888 16.5428C20.1829 16.5428 20.173 16.5358 20.1669 16.5273C20.1607 16.5187 20.1502 16.5117 20.1435 16.5117C20.1368 16.5117 20.1263 16.5047 20.1201 16.4961C20.114 16.4875 20.1027 16.4805 20.0951 16.4805C20.0874 16.4805 20.0812 16.477 20.0812 16.4727C20.0812 16.4685 20.075 16.465 20.0673 16.465C20.0597 16.465 20.0484 16.458 20.0423 16.4494C20.0361 16.4408 20.0256 16.4338 20.0189 16.4338C20.0122 16.4338 20.0017 16.4268 19.9956 16.4182C19.9894 16.4097 19.9789 16.4027 19.9722 16.4027C19.9655 16.4027 19.955 16.3957 19.9488 16.3871C19.9427 16.3785 19.9321 16.3715 19.9255 16.3715C19.9188 16.3715 19.9083 16.3645 19.9021 16.356C19.8959 16.3474 19.8854 16.3404 19.8788 16.3404C19.8721 16.3404 19.8616 16.3334 19.8554 16.3248C19.8492 16.3162 19.8387 16.3092 19.832 16.3092C19.8254 16.3092 19.8149 16.3022 19.8087 16.2937C19.8025 16.2851 19.792 16.2781 19.7853 16.2781C19.7786 16.2781 19.7681 16.2711 19.762 16.2625C19.7558 16.2539 19.7453 16.2469 19.7386 16.2469C19.7319 16.2469 19.7214 16.2399 19.7152 16.2314C19.7091 16.2228 19.6986 16.2158 19.6919 16.2158C19.6852 16.2158 19.6747 16.2088 19.6685 16.2002C19.6623 16.1917 19.6518 16.1846 19.6452 16.1846C19.6385 16.1846 19.628 16.1776 19.6218 16.1691C19.6156 16.1605 19.6051 16.1535 19.5984 16.1535C19.5918 16.1535 19.5813 16.1465 19.5751 16.1379C19.5689 16.1294 19.5584 16.1224 19.5517 16.1224C19.5451 16.1224 19.5345 16.1154 19.5284 16.1068C19.5222 16.0982 19.5117 16.0912 19.505 16.0912C19.4983 16.0912 19.4878 16.0842 19.4816 16.0756C19.4755 16.0671 19.465 16.0601 19.4583 16.0601C19.4516 16.0601 19.4411 16.0531 19.4349 16.0445C19.4288 16.0359 19.4182 16.0289 19.4116 16.0289C19.4049 16.0289 19.3944 16.0219 19.3882 16.0133C19.382 16.0048 19.3715 15.9978 19.3649 15.9978C19.3582 15.9978 19.3477 15.9908 19.3415 15.9822C19.3353 15.9736 19.3248 15.9666 19.3181 15.9666C19.3115 15.9666 19.3009 15.9596 19.2948 15.9511C19.2886 15.9425 19.2781 15.9355 19.2714 15.9355C19.2647 15.9355 19.2542 15.9285 19.2481 15.9199C19.2419 15.9113 19.2314 15.9043 19.2247 15.9043C19.218 15.9043 19.2075 15.8973 19.2013 15.8888C19.1952 15.8802 19.1846 15.8732 19.178 15.8732C19.1713 15.8732 19.1608 15.8662 19.1546 15.8576C19.1484 15.8491 19.1379 15.842 19.1313 15.842C19.1246 15.842 19.1141 15.835 19.1079 15.8265C19.1017 15.8179 19.0912 15.8109 19.0845 15.8109C19.0779 15.8109 19.0674 15.8039 19.0612 15.7953C19.055 15.7868 19.0445 15.7798 19.0378 15.7798C19.0311 15.7798 19.0206 15.7727 19.0145 15.7642C19.0083 15.7556 18.997 15.7486 18.9894 15.7486C18.9818 15.7486 18.9755 15.7451 18.9755 15.7408C18.9755 15.7365 18.9693 15.733 18.9617 15.733C18.9541 15.733 18.9428 15.726 18.9366 15.7175C18.9304 15.7089 18.9205 15.7019 18.9146 15.7019C18.9087 15.7019 18.8941 15.6914 18.8821 15.6785C18.8701 15.6657 18.8554 15.6552 18.8495 15.6552C18.8436 15.6552 18.8338 15.6482 18.8276 15.6396C18.8214 15.631 18.8101 15.624 18.8025 15.624C18.7949 15.624 18.7887 15.6205 18.7887 15.6162C18.7887 15.612 18.7824 15.6085 18.7748 15.6085C18.7672 15.6085 18.7559 15.6014 18.7497 15.5929C18.7435 15.5843 18.733 15.5773 18.7264 15.5773C18.7197 15.5773 18.7092 15.5703 18.703 15.5617C18.6968 15.5532 18.6863 15.5462 18.6796 15.5462C18.673 15.5462 18.6625 15.5392 18.6563 15.5306C18.6501 15.522 18.6396 15.515 18.6329 15.515C18.6263 15.515 18.6157 15.508 18.6096 15.4994C18.6034 15.4909 18.5929 15.4839 18.5862 15.4839C18.5795 15.4839 18.569 15.4769 18.5628 15.4683C18.5567 15.4597 18.5462 15.4527 18.5395 15.4527C18.5328 15.4527 18.5223 15.4457 18.5161 15.4372C18.51 15.4286 18.4994 15.4216 18.4928 15.4216C18.4861 15.4216 18.4756 15.4146 18.4694 15.406C18.4632 15.3974 18.4527 15.3904 18.4461 15.3904C18.4394 15.3904 18.4289 15.3834 18.4227 15.3749C18.4165 15.3663 18.406 15.3593 18.3993 15.3593C18.3927 15.3593 18.3821 15.3523 18.376 15.3437C18.3698 15.3352 18.3593 15.3281 18.3526 15.3281C18.3459 15.3281 18.3354 15.3211 18.3293 15.3126C18.3231 15.304 18.3126 15.297 18.3059 15.297C18.2992 15.297 18.2887 15.29 18.2825 15.2814C18.2764 15.2729 18.2659 15.2659 18.2592 15.2659C18.2525 15.2659 18.242 15.2588 18.2358 15.2503C18.2296 15.2417 18.2191 15.2347 18.2125 15.2347C18.2058 15.2347 18.1953 15.2277 18.1891 15.2191C18.1829 15.2106 18.1724 15.2036 18.1657 15.2036C18.1591 15.2036 18.1486 15.1966 18.1424 15.188C18.1362 15.1794 18.1257 15.1724 18.119 15.1724C18.1123 15.1724 18.1018 15.1654 18.0957 15.1568C18.0895 15.1483 18.079 15.1413 18.0723 15.1413C18.0656 15.1413 18.0551 15.1343 18.0489 15.1257C18.0428 15.1171 18.0323 15.1101 18.0256 15.1101C18.0189 15.1101 18.0084 15.1031 18.0022 15.0945C17.996 15.086 17.9855 15.079 17.9789 15.079C17.9722 15.079 17.9617 15.072 17.9555 15.0634C17.9493 15.0548 17.9395 15.0478 17.9335 15.0478C17.9277 15.0478 17.913 15.0373 17.901 15.0245C17.889 15.0116 17.875 15.0011 17.8699 15.0011C17.8647 15.0011 17.8507 14.9906 17.8387 14.9778C17.8267 14.9649 17.8113 14.9544 17.8044 14.9544C17.7976 14.9544 17.792 14.9509 17.792 14.9466C17.792 14.9423 17.7858 14.9388 17.7781 14.9388C17.7705 14.9388 17.7592 14.9318 17.7531 14.9232C17.7469 14.9147 17.7356 14.9077 17.728 14.9077C17.7204 14.9077 17.7141 14.9042 17.7141 14.8999C17.7141 14.8956 17.7071 14.8921 17.6986 14.8921C17.69 14.8921 17.683 14.8886 17.683 14.8843C17.683 14.88 17.676 14.8765 17.6674 14.8765C17.6588 14.8765 17.6518 14.873 17.6518 14.8687C17.6518 14.8645 17.6413 14.861 17.6285 14.861C17.6156 14.861 17.6051 14.8575 17.6051 14.8532C17.6051 14.8489 17.5981 14.8454 17.5895 14.8454C17.581 14.8454 17.574 14.8419 17.574 14.8376C17.574 14.8333 17.5635 14.8298 17.5506 14.8298C17.5378 14.8298 17.5273 14.8263 17.5273 14.822C17.5273 14.8177 17.5132 14.8142 17.4961 14.8142C17.479 14.8142 17.465 14.8107 17.465 14.8065C17.465 14.8022 17.4509 14.7987 17.4338 14.7987C17.4167 14.7987 17.4027 14.7952 17.4027 14.7909C17.4027 14.786 17.3482 14.7831 17.2547 14.7831C17.1613 14.7831 17.1068 14.786 17.1068 14.7909C17.1068 14.7952 17.0928 14.7987 17.0756 14.7987C17.0585 14.7987 17.0445 14.8022 17.0445 14.8065C17.0445 14.8107 17.0305 14.8142 17.0133 14.8142C16.9962 14.8142 16.9822 14.8177 16.9822 14.822C16.9822 14.8263 16.9717 14.8298 16.9588 14.8298C16.946 14.8298 16.9355 14.8333 16.9355 14.8376C16.9355 14.8419 16.9285 14.8454 16.9199 14.8454C16.9113 14.8454 16.9043 14.8489 16.9043 14.8532C16.9043 14.8575 16.8973 14.861 16.8888 14.861C16.8802 14.861 16.8732 14.8645 16.8732 14.8687C16.8732 14.873 16.8662 14.8765 16.8576 14.8765C16.8491 14.8765 16.842 14.88 16.842 14.8843C16.842 14.8886 16.835 14.8921 16.8265 14.8921C16.8179 14.8921 16.8109 14.8956 16.8109 14.8999C16.8109 14.9042 16.8039 14.9077 16.7953 14.9077C16.7868 14.9077 16.7798 14.9112 16.7798 14.9155C16.7798 14.9197 16.7745 14.9232 16.768 14.9232C16.7551 14.9232 16.3749 15.2999 16.3749 15.3126C16.3749 15.317 16.2838 15.4116 16.1724 15.5228C16.0611 15.634 15.97 15.7286 15.97 15.733C15.97 15.7438 15.7777 15.9355 15.7668 15.9355C15.7621 15.9355 15.7484 15.946 15.7364 15.9588C15.7244 15.9717 15.7097 15.9822 15.7038 15.9822C15.6979 15.9822 15.688 15.9892 15.6819 15.9978C15.6757 16.0063 15.6644 16.0133 15.6568 16.0133C15.6492 16.0133 15.6429 16.0169 15.6429 16.0211C15.6429 16.0254 15.6367 16.0289 15.6291 16.0289C15.6215 16.0289 15.6102 16.0359 15.604 16.0445C15.5978 16.0531 15.5865 16.0601 15.5789 16.0601C15.5713 16.0601 15.5651 16.0636 15.5651 16.0679C15.5651 16.0721 15.5581 16.0756 15.5495 16.0756C15.5409 16.0756 15.5339 16.0791 15.5339 16.0834C15.5339 16.0877 15.5269 16.0912 15.5184 16.0912C15.5098 16.0912 15.5028 16.0947 15.5028 16.099C15.5028 16.1033 15.4923 16.1068 15.4794 16.1068C15.4666 16.1068 15.4561 16.1103 15.4561 16.1146C15.4561 16.1189 15.4491 16.1224 15.4405 16.1224C15.4319 16.1224 15.4249 16.1259 15.4249 16.1301C15.4249 16.1344 15.4144 16.1379 15.4016 16.1379C15.3887 16.1379 15.3782 16.1414 15.3782 16.1457C15.3782 16.15 15.3642 16.1535 15.3471 16.1535C15.3299 16.1535 15.3159 16.157 15.3159 16.1613C15.3159 16.1656 15.3019 16.1691 15.2848 16.1691C15.2676 16.1691 15.2536 16.1726 15.2536 16.1769C15.2536 16.1813 15.2303 16.1846 15.1991 16.1846C15.168 16.1846 15.1446 16.188 15.1446 16.1924C15.1446 16.1971 15.1161 16.2002 15.0745 16.2002C15.033 16.2002 15.0044 16.1971 15.0044 16.1924C15.0044 16.188 14.9811 16.1846 14.9499 16.1846C14.9188 16.1846 14.8954 16.1813 14.8954 16.1769C14.8954 16.1726 14.8814 16.1691 14.8643 16.1691C14.8472 16.1691 14.8331 16.1656 14.8331 16.1613C14.8331 16.157 14.8226 16.1535 14.8098 16.1535C14.7969 16.1535 14.7864 16.15 14.7864 16.1457C14.7864 16.1414 14.7759 16.1379 14.7631 16.1379C14.7502 16.1379 14.7397 16.1344 14.7397 16.1301C14.7397 16.1259 14.7327 16.1224 14.7241 16.1224C14.7156 16.1224 14.7086 16.1189 14.7086 16.1146C14.7086 16.1103 14.7016 16.1068 14.693 16.1068C14.6844 16.1068 14.6774 16.1033 14.6774 16.099C14.6774 16.0947 14.6669 16.0912 14.6541 16.0912C14.6412 16.0912 14.6307 16.0877 14.6307 16.0834C14.6307 16.0791 14.6237 16.0756 14.6151 16.0756C14.6066 16.0756 14.5996 16.0721 14.5996 16.0679C14.5996 16.0636 14.5925 16.0601 14.584 16.0601C14.5754 16.0601 14.5684 16.0566 14.5684 16.0523C14.5684 16.048 14.5614 16.0445 14.5528 16.0445C14.5443 16.0445 14.5373 16.041 14.5373 16.0367C14.5373 16.0324 14.5303 16.0289 14.5217 16.0289C14.5131 16.0289 14.5061 16.0254 14.5061 16.0211C14.5061 16.0169 14.4991 16.0133 14.4905 16.0133C14.482 16.0133 14.475 16.0098 14.475 16.0056C14.475 16.0013 14.468 15.9978 14.4594 15.9978C14.4508 15.9978 14.4438 15.9943 14.4438 15.99C14.4438 15.9857 14.4368 15.9822 14.4283 15.9822C14.4197 15.9822 14.4127 15.9787 14.4127 15.9744C14.4127 15.9701 14.4057 15.9666 14.3971 15.9666C14.3885 15.9666 14.3815 15.9631 14.3815 15.9588C14.3815 15.9546 14.3745 15.9511 14.366 15.9511C14.3574 15.9511 14.3504 15.9476 14.3504 15.9433C14.3504 15.939 14.3406 15.9355 14.3288 15.9355C14.316 15.9355 14.3025 15.9291 14.2959 15.9199C14.2897 15.9113 14.2784 15.9043 14.2708 15.9043C14.2632 15.9043 14.257 15.9008 14.257 15.8966C14.257 15.8923 14.2472 15.8888 14.2353 15.8888C14.2226 15.8888 14.209 15.8823 14.2024 15.8732C14.1963 15.8646 14.185 15.8576 14.1774 15.8576C14.1698 15.8576 14.1635 15.8541 14.1635 15.8498C14.1635 15.8456 14.1565 15.842 14.1479 15.842C14.1394 15.842 14.1324 15.8385 14.1324 15.8343C14.1324 15.83 14.1254 15.8265 14.1168 15.8265C14.1082 15.8265 14.1012 15.823 14.1012 15.8187C14.1012 15.8144 14.0942 15.8109 14.0857 15.8109C14.0771 15.8109 14.0701 15.8074 14.0701 15.8031C14.0701 15.7988 14.0638 15.7953 14.0562 15.7953C14.0486 15.7953 14.0373 15.7883 14.0311 15.7798C14.025 15.7712 14.0137 15.7642 14.0061 15.7642C13.9985 15.7642 13.9922 15.7607 13.9922 15.7564C13.9922 15.7521 13.9852 15.7486 13.9766 15.7486C13.9681 15.7486 13.9611 15.7451 13.9611 15.7408C13.9611 15.7365 13.9548 15.733 13.9472 15.733C13.9396 15.733 13.9283 15.726 13.9221 15.7175C13.916 15.7089 13.9047 15.7019 13.8971 15.7019C13.8894 15.7019 13.8832 15.6984 13.8832 15.6941C13.8832 15.6898 13.877 15.6863 13.8694 15.6863C13.8617 15.6863 13.8504 15.6793 13.8443 15.6707C13.8381 15.6622 13.8268 15.6552 13.8192 15.6552C13.8116 15.6552 13.8053 15.6517 13.8053 15.6474C13.8053 15.6431 13.7991 15.6396 13.7915 15.6396C13.7839 15.6396 13.7726 15.6326 13.7664 15.624C13.7602 15.6155 13.749 15.6085 13.7413 15.6085C13.7337 15.6085 13.7275 15.6049 13.7275 15.6007C13.7275 15.5964 13.7212 15.5929 13.7136 15.5929C13.706 15.5929 13.6947 15.5859 13.6885 15.5773C13.6824 15.5687 13.6719 15.5617 13.6652 15.5617C13.6585 15.5617 13.648 15.5547 13.6418 15.5462C13.6356 15.5376 13.6251 15.5306 13.6185 15.5306C13.6118 15.5306 13.6013 15.5236 13.5951 15.515C13.5889 15.5065 13.5784 15.4994 13.5717 15.4994C13.5651 15.4994 13.5546 15.4924 13.5484 15.4839C13.5422 15.4753 13.5317 15.4683 13.525 15.4683C13.5184 15.4683 13.5078 15.4613 13.5017 15.4527C13.4955 15.4442 13.485 15.4372 13.4783 15.4372C13.4716 15.4372 13.4611 15.4301 13.4549 15.4216C13.4488 15.413 13.4383 15.406 13.4316 15.406C13.4249 15.406 13.4144 15.399 13.4082 15.3904C13.4021 15.3819 13.3915 15.3749 13.3849 15.3749C13.3782 15.3749 13.3677 15.3679 13.3615 15.3593C13.3553 15.3507 13.3455 15.3437 13.3396 15.3437C13.3337 15.3437 13.319 15.3332 13.307 15.3204C13.295 15.3075 13.281 15.297 13.2759 15.297C13.2707 15.297 13.2567 15.2865 13.2447 15.2736C13.2327 15.2608 13.2187 15.2503 13.2136 15.2503C13.2084 15.2503 13.1944 15.2398 13.1824 15.2269C13.1704 15.2141 13.1564 15.2036 13.1513 15.2036C13.1461 15.2036 13.1321 15.193 13.1201 15.1802C13.1081 15.1674 13.0942 15.1568 13.0891 15.1568C13.0841 15.1568 13.0665 15.1428 13.0501 15.1257C13.0336 15.1086 13.0161 15.0945 13.0111 15.0945C13.0062 15.0945 12.9887 15.0805 12.9722 15.0634C12.9557 15.0463 12.9383 15.0323 12.9334 15.0323C12.9285 15.0323 12.9074 15.0147 12.8865 14.9933C12.8657 14.9719 12.8447 14.9544 12.8399 14.9544C12.8351 14.9544 12.8105 14.9334 12.7853 14.9077C12.7601 14.882 12.7356 14.861 12.731 14.861C12.7263 14.861 12.6877 14.8259 12.6452 14.7831C12.6026 14.7403 12.5642 14.7052 12.5597 14.7052C12.5492 14.7052 12.2948 14.4509 12.2948 14.4403C12.2948 14.4359 12.2492 14.3869 12.1935 14.3315C12.1379 14.276 12.0923 14.2269 12.0923 14.2223C12.0923 14.2176 12.0713 14.1932 12.0456 14.168C12.0199 14.1427 11.9989 14.1182 11.9989 14.1134C11.9989 14.1086 11.9814 14.0876 11.96 14.0667C11.9385 14.0459 11.921 14.0248 11.921 14.0199C11.921 14.015 11.907 13.9976 11.8899 13.9811C11.8727 13.9646 11.8587 13.9471 11.8587 13.9422C11.8587 13.9372 11.8447 13.9197 11.8276 13.9032C11.8105 13.8868 11.7964 13.8692 11.7964 13.8641C11.7964 13.8591 11.7859 13.8451 11.7731 13.8331C11.7602 13.8211 11.7497 13.8071 11.7497 13.802C11.7497 13.7969 11.7392 13.7829 11.7264 13.7709C11.7135 13.7589 11.703 13.7448 11.703 13.7397C11.703 13.7346 11.6925 13.7206 11.6796 13.7086C11.6668 13.6966 11.6563 13.6819 11.6563 13.676C11.6563 13.6701 11.6493 13.6602 11.6407 13.6541C11.6321 13.6479 11.6251 13.6374 11.6251 13.6307C11.6251 13.624 11.6181 13.6135 11.6096 13.6073C11.601 13.6012 11.594 13.5913 11.594 13.5854C11.594 13.5795 11.5835 13.5648 11.5706 13.5528C11.5578 13.5408 11.5473 13.5262 11.5473 13.5203C11.5473 13.5144 11.5403 13.5045 11.5317 13.4983C11.5231 13.4922 11.5161 13.4816 11.5161 13.475C11.5161 13.4683 11.5091 13.4578 11.5006 13.4516C11.492 13.4454 11.485 13.4349 11.485 13.4283C11.485 13.4216 11.478 13.4111 11.4694 13.4049C11.4608 13.3987 11.4538 13.3882 11.4538 13.3815C11.4538 13.3749 11.4468 13.3644 11.4383 13.3582C11.4297 13.352 11.4227 13.3407 11.4227 13.3331C11.4227 13.3255 11.4192 13.3192 11.4149 13.3192C11.4106 13.3192 11.4071 13.313 11.4071 13.3054C11.4071 13.2978 11.4001 13.2865 11.3915 13.2803C11.383 13.2741 11.376 13.2629 11.376 13.2552C11.376 13.2476 11.3725 13.2414 11.3682 13.2414C11.3639 13.2414 11.3604 13.2351 11.3604 13.2275C11.3604 13.2199 11.3534 13.2086 11.3448 13.2024C11.3363 13.1963 11.3293 13.185 11.3293 13.1774C11.3293 13.1698 11.3258 13.1635 11.3215 13.1635C11.3172 13.1635 11.3137 13.1573 11.3137 13.1497C11.3137 13.142 11.3067 13.1308 11.2981 13.1246C11.2895 13.1184 11.2825 13.1071 11.2825 13.0995C11.2825 13.0919 11.279 13.0857 11.2747 13.0857C11.2705 13.0857 11.267 13.0786 11.267 13.0701C11.267 13.0615 11.2635 13.0545 11.2592 13.0545C11.2549 13.0545 11.2514 13.0483 11.2514 13.0407C11.2514 13.033 11.2444 13.0217 11.2358 13.0156C11.2273 13.0094 11.2202 12.9981 11.2202 12.9905C11.2202 12.9829 11.2167 12.9766 11.2125 12.9766C11.2082 12.9766 11.2047 12.9696 11.2047 12.9611C11.2047 12.9525 11.2012 12.9455 11.1969 12.9455C11.1926 12.9455 11.1891 12.9385 11.1891 12.9299C11.1891 12.9214 11.1856 12.9143 11.1813 12.9143C11.177 12.9143 11.1735 12.9073 11.1735 12.8988C11.1735 12.8902 11.17 12.8832 11.1657 12.8832C11.1615 12.8832 11.158 12.8762 11.158 12.8676C11.158 12.8591 11.1544 12.8521 11.1502 12.8521C11.1459 12.8521 11.1424 12.8451 11.1424 12.8365C11.1424 12.8279 11.1389 12.8209 11.1346 12.8209C11.1303 12.8209 11.1268 12.8139 11.1268 12.8053C11.1268 12.7968 11.1233 12.7898 11.119 12.7898C11.1147 12.7898 11.1112 12.7828 11.1112 12.7742C11.1112 12.7656 11.1077 12.7586 11.1034 12.7586C11.0992 12.7586 11.0957 12.7516 11.0957 12.743C11.0957 12.7345 11.0922 12.7275 11.0879 12.7275C11.0836 12.7275 11.0801 12.7205 11.0801 12.7119C11.0801 12.7033 11.0766 12.6963 11.0723 12.6963C11.068 12.6963 11.0645 12.6893 11.0645 12.6808C11.0645 12.6722 11.061 12.6652 11.0567 12.6652C11.0524 12.6652 11.0489 12.6582 11.0489 12.6496C11.0489 12.641 11.0454 12.634 11.0412 12.634C11.0369 12.634 11.0334 12.627 11.0334 12.6185C11.0334 12.6099 11.0299 12.6029 11.0256 12.6029C11.0213 12.6029 11.0178 12.5924 11.0178 12.5795C11.0178 12.5667 11.0143 12.5562 11.01 12.5562C11.0057 12.5562 11.0022 12.5492 11.0022 12.5406C11.0022 12.532 10.9987 12.525 10.9944 12.525C10.9902 12.525 10.9867 12.518 10.9867 12.5095C10.9867 12.5009 10.9831 12.4939 10.9789 12.4939C10.9746 12.4939 10.9711 12.4834 10.9711 12.4705C10.9711 12.4577 10.9676 12.4472 10.9633 12.4472C10.959 12.4472 10.9555 12.4402 10.9555 12.4316C10.9555 12.423 10.952 12.416 10.9477 12.416C10.9434 12.416 10.9399 12.4055 10.9399 12.3927C10.9399 12.3798 10.9364 12.3693 10.9321 12.3693C10.9279 12.3693 10.9244 12.3588 10.9244 12.3459C10.9244 12.3331 10.9209 12.3226 10.9166 12.3226C10.9123 12.3226 10.9088 12.3086 10.9088 12.2914C10.9088 12.2743 10.9053 12.2603 10.901 12.2603C10.8967 12.2603 10.8932 12.2428 10.8932 12.2214C10.8932 12.1999 10.8897 12.1824 10.8854 12.1824C10.8804 12.1824 10.8776 12.1123 10.8776 11.9878C10.8776 11.8632 10.8804 11.7931 10.8854 11.7931C10.8898 11.7931 10.8932 11.7723 10.8932 11.7464C10.8932 11.7204 10.8967 11.6997 10.901 11.6997C10.9053 11.6997 10.9088 11.6892 10.9088 11.6763C10.9088 11.6635 10.9123 11.6529 10.9166 11.6529C10.9209 11.6529 10.9244 11.6389 10.9244 11.6218C10.9244 11.6047 10.9279 11.5907 10.9321 11.5907C10.9364 11.5907 10.9399 11.5801 10.9399 11.5673C10.9399 11.5544 10.9434 11.5439 10.9477 11.5439C10.952 11.5439 10.9555 11.5369 10.9555 11.5284C10.9555 11.5198 10.959 11.5128 10.9633 11.5128C10.9676 11.5128 10.9711 11.5023 10.9711 11.4894C10.9711 11.4766 10.9746 11.4661 10.9789 11.4661C10.9831 11.4661 10.9867 11.4591 10.9867 11.4505C10.9867 11.4419 10.9902 11.4349 10.9944 11.4349C10.9987 11.4349 11.0022 11.4279 11.0022 11.4194C11.0022 11.4108 11.0057 11.4038 11.01 11.4038C11.0143 11.4038 11.0178 11.3968 11.0178 11.3882C11.0178 11.3796 11.0213 11.3726 11.0256 11.3726C11.0299 11.3726 11.0334 11.3629 11.0334 11.351C11.0334 11.3383 11.0398 11.3247 11.0489 11.3181C11.0575 11.312 11.0645 11.3007 11.0645 11.2931C11.0645 11.2854 11.068 11.2792 11.0723 11.2792C11.0766 11.2792 11.0801 11.2722 11.0801 11.2636C11.0801 11.2551 11.0836 11.2481 11.0879 11.2481C11.0922 11.2481 11.0957 11.2418 11.0957 11.2342C11.0957 11.2266 11.1027 11.2153 11.1112 11.2091C11.1198 11.2029 11.1268 11.1917 11.1268 11.184C11.1268 11.1764 11.1303 11.1702 11.1346 11.1702C11.1389 11.1702 11.1424 11.164 11.1424 11.1563C11.1424 11.1487 11.1494 11.1374 11.158 11.1313C11.1665 11.1251 11.1735 11.1152 11.1735 11.1093C11.1735 11.1034 11.184 11.0888 11.1969 11.0768C11.2097 11.0648 11.2202 11.0501 11.2202 11.0442C11.2202 11.0383 11.2273 11.0284 11.2358 11.0222C11.2444 11.0161 11.2514 11.0063 11.2514 11.0005C11.2514 10.9946 11.2654 10.9764 11.2825 10.96C11.2997 10.9435 11.3137 10.926 11.3137 10.9211C11.3137 10.9162 11.3312 10.8952 11.3526 10.8743C11.374 10.8534 11.3915 10.8326 11.3915 10.828C11.3915 10.8172 11.7393 10.4694 11.7501 10.4694C11.7547 10.4694 11.779 10.4484 11.8042 10.4227C11.8294 10.397 11.8541 10.376 11.8589 10.376C11.8638 10.376 11.8812 10.362 11.8977 10.3448C11.9141 10.3277 11.9316 10.3137 11.9366 10.3137C11.9415 10.3137 11.9591 10.2997 11.9755 10.2825C11.992 10.2654 12.0096 10.2514 12.0146 10.2514C12.0197 10.2514 12.0336 10.2409 12.0456 10.228C12.0576 10.2152 12.073 10.2047 12.0799 10.2047C12.0867 10.2047 12.0923 10.1991 12.0923 10.1924C12.0923 10.1856 12.1063 10.1666 12.1235 10.1502C12.1406 10.1337 12.1546 10.1155 12.1546 10.1097C12.1546 10.1039 12.1616 10.094 12.1702 10.0879C12.1788 10.0817 12.1858 10.0704 12.1858 10.0628C12.1858 10.0552 12.1893 10.0489 12.1935 10.0489C12.1978 10.0489 12.2013 10.0419 12.2013 10.0334C12.2013 10.0248 12.2048 10.0178 12.2091 10.0178C12.2134 10.0178 12.2169 10.0108 12.2169 10.0022C12.2169 9.99366 12.2204 9.98665 12.2247 9.98665C12.229 9.98665 12.2325 9.97614 12.2325 9.96329C12.2325 9.95044 12.236 9.93993 12.2403 9.93993C12.2445 9.93993 12.2481 9.92241 12.2481 9.901C12.2481 9.87959 12.2516 9.86207 12.2558 9.86207C12.2607 9.86207 12.2636 9.82054 12.2636 9.75306C12.2636 9.68557 12.2607 9.64405 12.2558 9.64405C12.2516 9.64405 12.2481 9.62653 12.2481 9.60512C12.2481 9.5837 12.2445 9.56618 12.2403 9.56618C12.236 9.56618 12.2325 9.55217 12.2325 9.53504C12.2325 9.51791 12.229 9.50389 12.2247 9.50389C12.2204 9.50389 12.2169 9.49689 12.2169 9.48832C12.2169 9.47976 12.2134 9.47275 12.2091 9.47275C12.2048 9.47275 12.2013 9.46224 12.2013 9.44939C12.2013 9.43654 12.1978 9.42603 12.1935 9.42603C12.1893 9.42603 12.1858 9.41902 12.1858 9.41046C12.1858 9.40189 12.1823 9.39488 12.178 9.39488C12.1737 9.39488 12.1702 9.38788 12.1702 9.37931C12.1702 9.37075 12.1667 9.36374 12.1624 9.36374C12.1581 9.36374 12.1546 9.35673 12.1546 9.34816C12.1546 9.3396 12.1511 9.33259 12.1468 9.33259C12.1425 9.33259 12.139 9.32635 12.139 9.31874C12.139 9.31112 12.132 9.29983 12.1235 9.29366C12.1149 9.28749 12.1079 9.27697 12.1079 9.2703C12.1079 9.26363 12.1009 9.25312 12.0923 9.24694C12.0838 9.24077 12.0768 9.23025 12.0768 9.22358C12.0768 9.21691 12.0697 9.2064 12.0612 9.20022C12.0526 9.19405 12.0456 9.18354 12.0456 9.17686C12.0456 9.17019 12.0386 9.15968 12.03 9.1535C12.0215 9.14733 12.0145 9.13682 12.0145 9.13014C12.0145 9.12347 12.0075 9.11296 11.9989 9.10679C11.9903 9.10061 11.9833 9.0901 11.9833 9.08343C11.9833 9.07675 11.9763 9.06624 11.9677 9.06007C11.9592 9.05389 11.9522 9.04338 11.9522 9.03671C11.9522 9.03003 11.9452 9.01952 11.9366 9.01335C11.928 9.00717 11.921 8.99666 11.921 8.98999C11.921 8.98332 11.914 8.9728 11.9055 8.96663C11.8969 8.96045 11.8899 8.94994 11.8899 8.94327C11.8899 8.9366 11.8829 8.92609 11.8743 8.91991C11.8657 8.91374 11.8587 8.90322 11.8587 8.89655C11.8587 8.88988 11.8517 8.87937 11.8432 8.87319C11.8346 8.86702 11.8276 8.85651 11.8276 8.84983C11.8276 8.84316 11.8206 8.83265 11.812 8.82647C11.8034 8.8203 11.7964 8.80979 11.7964 8.80311C11.7964 8.79644 11.7894 8.78593 11.7809 8.77976C11.7723 8.77358 11.7653 8.7623 11.7653 8.75468C11.7653 8.74706 11.7618 8.74082 11.7575 8.74082C11.7532 8.74082 11.7497 8.73459 11.7497 8.72697C11.7497 8.71935 11.7427 8.70807 11.7341 8.70189C11.7256 8.69572 11.7186 8.6852 11.7186 8.67853C11.7186 8.67186 11.7116 8.66135 11.703 8.65517C11.6944 8.649 11.6874 8.63849 11.6874 8.63181C11.6874 8.62514 11.6804 8.61463 11.6719 8.60845C11.6633 8.60228 11.6563 8.59177 11.6563 8.58509C11.6563 8.57842 11.6493 8.56791 11.6407 8.56174C11.6321 8.55556 11.6251 8.54505 11.6251 8.53838C11.6251 8.5317 11.6181 8.52119 11.6096 8.51502C11.601 8.50884 11.594 8.49833 11.594 8.49166C11.594 8.48498 11.587 8.47447 11.5784 8.4683C11.5699 8.46212 11.5628 8.45161 11.5628 8.44494C11.5628 8.43827 11.5558 8.42775 11.5473 8.42158C11.5387 8.41541 11.5317 8.40489 11.5317 8.39822C11.5317 8.39155 11.5247 8.38104 11.5161 8.37486C11.5076 8.36869 11.5006 8.35817 11.5006 8.3515C11.5006 8.34483 11.4935 8.33432 11.485 8.32814C11.4764 8.32197 11.4694 8.31146 11.4694 8.30478C11.4694 8.29811 11.4624 8.2876 11.4538 8.28142C11.4453 8.27525 11.4383 8.26474 11.4383 8.25806C11.4383 8.25139 11.4313 8.24088 11.4227 8.23471C11.4141 8.22853 11.4071 8.21802 11.4071 8.21135C11.4071 8.20467 11.4001 8.19416 11.3915 8.18799C11.383 8.18181 11.376 8.1713 11.376 8.16463C11.376 8.15795 11.369 8.14744 11.3604 8.14127C11.3518 8.13509 11.3448 8.12458 11.3448 8.11791C11.3448 8.11124 11.3378 8.10072 11.3293 8.09455C11.3207 8.08837 11.3137 8.07786 11.3137 8.07119C11.3137 8.06452 11.3067 8.05401 11.2981 8.04783C11.2895 8.04166 11.2825 8.03114 11.2825 8.02447C11.2825 8.0178 11.2755 8.00729 11.267 8.00111C11.2584 7.99494 11.2514 7.98443 11.2514 7.97775C11.2514 7.97108 11.2444 7.96057 11.2358 7.95439C11.2273 7.94822 11.2202 7.93771 11.2202 7.93103C11.2202 7.92436 11.2132 7.91385 11.2047 7.90768C11.1961 7.9015 11.1891 7.89022 11.1891 7.8826C11.1891 7.87498 11.1856 7.86874 11.1813 7.86874C11.177 7.86874 11.1735 7.86314 11.1735 7.85629C11.1735 7.84945 11.163 7.83402 11.1502 7.82202C11.1373 7.81003 11.1268 7.79537 11.1268 7.78948C11.1268 7.78358 11.1198 7.77369 11.1112 7.76752C11.1027 7.76134 11.0957 7.75006 11.0957 7.74244C11.0957 7.73482 11.0922 7.72859 11.0879 7.72859C11.0836 7.72859 11.0801 7.72235 11.0801 7.71474C11.0801 7.70711 11.0731 7.69583 11.0645 7.68966C11.056 7.68348 11.0489 7.67297 11.0489 7.6663C11.0489 7.65962 11.0419 7.64911 11.0334 7.64294C11.0248 7.63676 11.0178 7.62625 11.0178 7.61958C11.0178 7.6129 11.0108 7.60239 11.0022 7.59622C10.9937 7.59004 10.9867 7.57953 10.9867 7.57286C10.9867 7.56619 10.9796 7.55567 10.9711 7.5495C10.9625 7.54332 10.9555 7.53281 10.9555 7.52614C10.9555 7.51947 10.9485 7.50896 10.9399 7.50278C10.9314 7.49661 10.9244 7.48609 10.9244 7.47942C10.9244 7.47275 10.9174 7.46224 10.9088 7.45606C10.9002 7.44989 10.8932 7.43938 10.8932 7.4327C10.8932 7.42603 10.8862 7.41552 10.8776 7.40934C10.8691 7.40317 10.8621 7.39266 10.8621 7.38598C10.8621 7.37931 10.8551 7.3688 10.8465 7.36263C10.8379 7.35645 10.8309 7.34594 10.8309 7.33927C10.8309 7.33259 10.8239 7.32208 10.8154 7.31591C10.8068 7.30973 10.7998 7.29922 10.7998 7.29255C10.7998 7.28587 10.7928 7.27536 10.7842 7.26919C10.7756 7.26301 10.7686 7.2525 10.7686 7.24583C10.7686 7.23916 10.7616 7.22864 10.7531 7.22247C10.7445 7.21629 10.7375 7.20578 10.7375 7.19911C10.7375 7.19244 10.7305 7.18193 10.7219 7.17575C10.7133 7.16958 10.7063 7.15906 10.7063 7.15239C10.7063 7.14572 10.6993 7.13521 10.6908 7.12903C10.6822 7.12286 10.6752 7.11235 10.6752 7.10567C10.6752 7.099 10.6682 7.08849 10.6596 7.08231C10.6511 7.07614 10.644 7.06563 10.644 7.05895C10.644 7.05228 10.637 7.04177 10.6285 7.0356C10.6199 7.02942 10.6129 7.01891 10.6129 7.01224C10.6129 7.00556 10.6059 6.99505 10.5973 6.98888C10.5888 6.9827 10.5818 6.97219 10.5818 6.96552C10.5818 6.95884 10.5747 6.94833 10.5662 6.94216C10.5576 6.93598 10.5506 6.92547 10.5506 6.9188C10.5506 6.91213 10.5436 6.90161 10.535 6.89544C10.5265 6.88926 10.5195 6.87798 10.5195 6.87036C10.5195 6.86274 10.516 6.85651 10.5117 6.85651C10.5074 6.85651 10.5039 6.85027 10.5039 6.84266C10.5039 6.83503 10.4969 6.82375 10.4883 6.81758C10.4798 6.8114 10.4727 6.80152 10.4727 6.79562C10.4727 6.78972 10.4622 6.77507 10.4494 6.76307C10.4365 6.75107 10.426 6.73565 10.426 6.7288C10.426 6.72195 10.4225 6.71635 10.4182 6.71635C10.414 6.71635 10.4105 6.71011 10.4105 6.7025C10.4105 6.69488 10.4034 6.68359 10.3949 6.67742C10.3863 6.67124 10.3793 6.66073 10.3793 6.65406C10.3793 6.64739 10.3723 6.63688 10.3637 6.6307C10.3552 6.62453 10.3482 6.61401 10.3482 6.60734C10.3482 6.60067 10.3412 6.59016 10.3326 6.58398C10.324 6.57781 10.317 6.5673 10.317 6.56062C10.317 6.55395 10.31 6.54344 10.3014 6.53726C10.2929 6.53109 10.2859 6.52058 10.2859 6.5139C10.2859 6.50723 10.2789 6.49672 10.2703 6.49055C10.2617 6.48437 10.2547 6.47386 10.2547 6.46719C10.2547 6.46051 10.2477 6.45 10.2392 6.44383C10.2306 6.43765 10.2236 6.42714 10.2236 6.42047C10.2236 6.41379 10.2166 6.40328 10.208 6.39711C10.1994 6.39093 10.1924 6.38133 10.1924 6.37578C10.1924 6.36261 10.0946 6.26474 10.0814 6.26474C10.0758 6.26474 10.0662 6.25773 10.0601 6.24917C10.0539 6.2406 10.0434 6.23359 10.0367 6.23359C10.03 6.23359 10.0195 6.22659 10.0133 6.21802C10.0072 6.20945 9.99666 6.20245 9.98999 6.20245C9.98332 6.20245 9.9728 6.19544 9.96663 6.18687C9.96045 6.17831 9.94917 6.1713 9.94155 6.1713C9.93393 6.1713 9.9277 6.1678 9.9277 6.16352C9.9277 6.15923 9.92146 6.15573 9.91385 6.15573C9.90622 6.15573 9.89494 6.14872 9.88877 6.14016C9.88259 6.13159 9.87131 6.12458 9.86369 6.12458C9.85607 6.12458 9.84983 6.12108 9.84983 6.1168C9.84983 6.11251 9.83932 6.10901 9.82647 6.10901C9.81363 6.10901 9.80311 6.10551 9.80311 6.10122C9.80311 6.09694 9.79611 6.09344 9.78754 6.09344C9.77898 6.09344 9.77197 6.08993 9.77197 6.08565C9.77197 6.08137 9.76146 6.07786 9.74861 6.07786C9.73576 6.07786 9.72525 6.07436 9.72525 6.07008C9.72525 6.0658 9.71474 6.06229 9.70189 6.06229C9.68904 6.06229 9.67853 6.05879 9.67853 6.05451C9.67853 6.05022 9.66452 6.04672 9.64739 6.04672C9.63026 6.04672 9.61624 6.04321 9.61624 6.03893C9.61624 6.03465 9.60222 6.03115 9.58509 6.03115C9.56796 6.03115 9.55395 6.02764 9.55395 6.02336C9.55395 6.01891 9.53059 6.01557 9.49944 6.01557C9.4683 6.01557 9.44494 6.01223 9.44494 6.00779C9.44494 6.00292 9.39822 6 9.32036 6C9.24249 6 9.19577 6.00292 9.19577 6.00779Z" fill="black"/>
<circle cx="13.5" cy="13.5" r="13" stroke="black"/>
</svg>
